<?xml version="1.0" encoding="utf-8"?>
<!-- Generator: Adobe Illustrator 16.0.3, SVG Export Plug-In . SVG Version: 6.00 Build 0)  -->
<!DOCTYPE svg PUBLIC "-//W3C//DTD SVG 1.1//EN" "http://www.w3.org/Graphics/SVG/1.1/DTD/svg11.dtd">
<svg version="1.1" xmlns="http://www.w3.org/2000/svg" xmlns:xlink="http://www.w3.org/1999/xlink" x="0px" y="0px" width="24px"
	 height="24px" viewBox="0 0 24 24" enable-background="new 0 0 24 24" xml:space="preserve">
<g id="Outline_Icons_1_">
	<g id="Outline_Icons">
	</g>
	<g id="New_icons_1_">
		<g>
			<g>
				<path fill="none" stroke="#000000" stroke-linecap="round" stroke-linejoin="round" stroke-miterlimit="10" d="M4.391,16.806
					L0.5,19.724l2.5,0.5l-0.5,2.5c0,0,4-1.5,4-3.5s-3.5-2.5-3.5-4"/>
				<path fill="none" stroke="#000000" stroke-linecap="round" stroke-linejoin="round" stroke-miterlimit="10" d="M7,8.5
					c-2.418,0.734-4,1.724-4,1.724v5c0,0,4-2.5,9-2.5s9,2.5,9,2.5v-5c0,0-1.562-0.978-3.955-1.71"/>
				
					<line fill="none" stroke="#000000" stroke-linecap="round" stroke-linejoin="round" stroke-miterlimit="10" x1="6.5" y1="19.224" x2="6.5" y2="13.724"/>
				<path fill="none" stroke="#000000" stroke-linecap="round" stroke-linejoin="round" stroke-miterlimit="10" d="M19.606,16.804
					l3.894,2.92l-2.5,0.5l0.5,2.5c0,0-4-1.5-4-3.5s3.5-2.5,3.5-4"/>
				
					<line fill="none" stroke="#000000" stroke-linecap="round" stroke-linejoin="round" stroke-miterlimit="10" x1="17.5" y1="19.224" x2="17.5" y2="13.724"/>
			</g>
			<polygon fill="none" stroke="#000000" stroke-linecap="round" stroke-linejoin="round" stroke-miterlimit="10" points="12,1 
				13,4.5 17,4.5 14,7 15.5,11 12,8.5 8.5,11 10,7 7,4.5 11,4.5 			"/>
		</g>
	</g>
</g>

</svg>
