<?xml version="1.0" encoding="utf-8"?>
<!-- Generator: Adobe Illustrator 16.0.3, SVG Export Plug-In . SVG Version: 6.00 Build 0)  -->
<!DOCTYPE svg PUBLIC "-//W3C//DTD SVG 1.1//EN" "http://www.w3.org/Graphics/SVG/1.1/DTD/svg11.dtd">
<svg version="1.1" xmlns="http://www.w3.org/2000/svg" xmlns:xlink="http://www.w3.org/1999/xlink" x="0px" y="0px" width="24px"
	 height="24px" viewBox="0 0 24 24" enable-background="new 0 0 24 24" xml:space="preserve">
<g id="Outline_Icons_1_">
	<g id="Outline_Icons">
		<g>
			<path fill="none" stroke="#000000" stroke-linejoin="round" stroke-miterlimit="10" d="M18.862,10.365L20.5,9l-1.638-1.364
				l0.99-1.889l-2.035-0.634l0.192-2.124l-2.123,0.193l-0.635-2.035l-1.887,0.99L12,0.5l-1.365,1.638l-1.888-0.99L8.113,3.183
				L5.989,2.989l0.193,2.124L4.147,5.747l0.99,1.889L3.5,9l1.638,1.365l-0.99,1.888l2.035,0.635l-0.193,2.123l2.124-0.193
				l0.634,2.035l1.888-0.99L12,17.5l1.365-1.638l1.887,0.99l0.635-2.035l2.123,0.193l-0.192-2.123l2.035-0.635L18.862,10.365z"/>
			<polyline fill="none" stroke="#000000" stroke-linejoin="round" stroke-miterlimit="10" points="19.96,14.633 23.338,20.481 
				19.488,19.83 18.152,23.5 15.495,19.013 			"/>
			<polyline fill="none" stroke="#000000" stroke-linejoin="round" stroke-miterlimit="10" points="4.039,14.633 0.662,20.481 
				4.512,19.83 5.848,23.5 8.505,19.013 			"/>
			<polyline fill="none" stroke="#000000" stroke-linecap="round" stroke-linejoin="round" stroke-miterlimit="10" points="
				15.308,6.353 11.354,11.647 8.692,8.985 			"/>
		</g>
	</g>
	<g id="New_icons_1_">
	</g>
</g>

</svg>
