<?xml version="1.0" encoding="utf-8"?>
<!-- Generator: Adobe Illustrator 16.0.3, SVG Export Plug-In . SVG Version: 6.00 Build 0)  -->
<!DOCTYPE svg PUBLIC "-//W3C//DTD SVG 1.1//EN" "http://www.w3.org/Graphics/SVG/1.1/DTD/svg11.dtd">
<svg version="1.1" xmlns="http://www.w3.org/2000/svg" xmlns:xlink="http://www.w3.org/1999/xlink" x="0px" y="0px" width="24px"
	 height="24px" viewBox="0 0 24 24" enable-background="new 0 0 24 24" xml:space="preserve">
<g id="Outline_Icons_1_">
	<g id="Outline_Icons">
		<g>
			<path fill="none" stroke="#000000" stroke-linejoin="round" stroke-miterlimit="10" d="M23.5,12c0-0.979-0.704-1.79-1.633-1.962
				c0.791-0.516,1.131-1.534,0.759-2.438c-0.376-0.905-1.337-1.385-2.262-1.188c0.535-0.778,0.459-1.851-0.233-2.542
				c-0.691-0.692-1.764-0.768-2.542-0.234c0.196-0.924-0.284-1.884-1.189-2.259c-0.904-0.375-1.923-0.035-2.438,0.757
				C13.789,1.204,12.98,0.5,12,0.5s-1.79,0.704-1.964,1.633C9.522,1.341,8.503,1.001,7.598,1.376
				C6.693,1.75,6.214,2.711,6.409,3.635C5.631,3.102,4.56,3.177,3.867,3.869C3.175,4.561,3.1,5.633,3.633,6.411
				C2.71,6.215,1.752,6.695,1.377,7.6S1.34,9.522,2.131,10.037C1.202,10.21,0.5,11.021,0.5,12s0.703,1.79,1.631,1.963
				c-0.791,0.516-1.129,1.534-0.755,2.439c0.374,0.903,1.334,1.383,2.257,1.188c-0.533,0.778-0.457,1.85,0.234,2.542
				C4.56,20.825,5.63,20.9,6.409,20.367c-0.195,0.923,0.285,1.883,1.189,2.258s1.924,0.036,2.438-0.756
				C10.21,22.797,11.022,23.5,12,23.5c0.98,0,1.789-0.703,1.962-1.631c0.515,0.792,1.533,1.13,2.438,0.756
				c0.904-0.375,1.384-1.335,1.188-2.26c0.778,0.535,1.851,0.46,2.542-0.232c0.692-0.692,0.769-1.764,0.233-2.542
				c0.924,0.195,1.886-0.285,2.262-1.188c0.374-0.905,0.033-1.924-0.759-2.439C22.795,13.791,23.5,12.979,23.5,12z"/>
			<path fill="none" stroke="#000000" stroke-linecap="round" stroke-linejoin="round" stroke-miterlimit="10" d="M9.5,9.252
				c0-1.656,1.343-3,3-3c1.656,0,3,1.344,3,3c0,1.657-1.344,3-3,3v3"/>
			<path fill="none" stroke="#000000" stroke-linejoin="round" stroke-miterlimit="10" d="M13,17.752c0,0.276-0.224,0.5-0.5,0.5l0,0
				c-0.276,0-0.5-0.224-0.5-0.5l0,0c0-0.276,0.224-0.5,0.5-0.5l0,0C12.776,17.252,13,17.476,13,17.752L13,17.752z"/>
		</g>
	</g>
	<g id="New_icons_1_">
	</g>
</g>

</svg>
