<?xml version="1.0" encoding="utf-8"?>
<!-- Generator: Adobe Illustrator 16.0.3, SVG Export Plug-In . SVG Version: 6.00 Build 0)  -->
<!DOCTYPE svg PUBLIC "-//W3C//DTD SVG 1.1//EN" "http://www.w3.org/Graphics/SVG/1.1/DTD/svg11.dtd">
<svg version="1.1" xmlns="http://www.w3.org/2000/svg" xmlns:xlink="http://www.w3.org/1999/xlink" x="0px" y="0px" width="24px"
	 height="24px" viewBox="0 0 24 24" enable-background="new 0 0 24 24" xml:space="preserve">
<g id="Outline_Icons_1_">
	<g id="Outline_Icons">
	</g>
	<g id="New_icons_1_">
		<g>
			<polyline fill="none" stroke="#000000" stroke-linecap="round" stroke-linejoin="round" stroke-miterlimit="10" points="9,18.5 
				20.5,18.5 20.5,15.5 23.5,15.5 23.5,10.5 20.5,10.5 20.5,7.5 18.5,7.5 			"/>
			<polyline fill="none" stroke="#000000" stroke-linecap="round" stroke-linejoin="round" stroke-miterlimit="10" points="7.5,7.5 
				0.5,7.5 0.5,18.5 3.5,18.5 			"/>
			<path fill="none" stroke="#000000" stroke-linecap="round" stroke-linejoin="round" stroke-miterlimit="10" d="M8.897,9.104
				c-1.704,1.048-2.46,2.684,0.387,4.455c0.291,3.343,1.915,3.52,3.797,2.363c1.883-1.154,3.806-5.268,3.351-7.922
				C13.614,9.144,11.029,7.797,8.897,9.104z"/>
			<path fill="none" stroke="#000000" stroke-linecap="round" stroke-linejoin="round" stroke-miterlimit="10" d="M5.413,18.179
				c0,0,4.461-6.661,8.27-7.524"/>
		</g>
	</g>
</g>

</svg>
