<?xml version="1.0" encoding="utf-8"?>
<!-- Generator: Adobe Illustrator 16.0.3, SVG Export Plug-In . SVG Version: 6.00 Build 0)  -->
<!DOCTYPE svg PUBLIC "-//W3C//DTD SVG 1.1//EN" "http://www.w3.org/Graphics/SVG/1.1/DTD/svg11.dtd">
<svg version="1.1" xmlns="http://www.w3.org/2000/svg" xmlns:xlink="http://www.w3.org/1999/xlink" x="0px" y="0px" width="24px"
	 height="24px" viewBox="0 0 24 24" enable-background="new 0 0 24 24" xml:space="preserve">
<g id="Outline_Icons">
	<g>
		<path fill="none" stroke="#000000" stroke-linejoin="round" stroke-miterlimit="10" d="M22.453,3.469
			c-0.051-0.707-1.031-0.836-1.271-0.178C20.401,5.43,18.3,8.959,18.3,8.959C17,7,7,7,5.701,8.959c0,0-2.101-3.577-2.881-5.715
			C2.579,2.584,1.6,2.717,1.548,3.421C0.913,12.125,3.196,21.5,12,21.5C20.766,21.5,23.089,12.191,22.453,3.469z M14.297,15.608
			c-0.935,0-1.204-0.563-1.281-0.947c-0.031-0.152-0.165-0.161-0.321-0.161H12h-0.694c-0.156,0-0.29,0.008-0.321,0.161
			c-0.077,0.384-0.347,0.999-1.281,0.999c-2.297,0-4.643-3.475-2.625-4.619c1.771-1.006,8.072-1.019,9.844-0.014
			C18.94,12.174,16.594,15.608,14.297,15.608z"/>
	</g>
</g>

</svg>
