<?xml version="1.0" encoding="utf-8"?>
<!-- Generator: Adobe Illustrator 16.0.3, SVG Export Plug-In . SVG Version: 6.00 Build 0)  -->
<!DOCTYPE svg PUBLIC "-//W3C//DTD SVG 1.1//EN" "http://www.w3.org/Graphics/SVG/1.1/DTD/svg11.dtd">
<svg version="1.1" xmlns="http://www.w3.org/2000/svg" xmlns:xlink="http://www.w3.org/1999/xlink" x="0px" y="0px" width="24px"
	 height="24px" viewBox="0 0 24 24" enable-background="new 0 0 24 24" xml:space="preserve">
<g id="Outline_Icons_1_">
	<g id="Outline_Icons">
		<g>
			<path fill="none" stroke="#000000" stroke-linecap="round" stroke-linejoin="round" stroke-miterlimit="10" d="M10.329,11.298
				c0.465-0.465,0.466-1.221,0-1.686L9.065,8.348C8.6,7.883,7.844,7.883,7.379,8.35L6.685,9.042
				c-0.601,0.601-0.693,1.539-0.225,2.25c2.015,3.046,4.702,5.733,7.748,7.747c0.708,0.468,1.648,0.375,2.249-0.224l0.693-0.693
				c0.466-0.466,0.466-1.223,0-1.687l-1.264-1.264c-0.466-0.465-1.221-0.465-1.687,0l-0.421,0.421
				c-1.387-1.135-2.735-2.485-3.872-3.871L10.329,11.298z"/>
			<g>
				<path fill="none" stroke="#000000" stroke-linecap="round" stroke-linejoin="round" stroke-miterlimit="10" d="M21.5,0.5h-17
					c-1.104,0-2,0.895-2,2c0,1.104,0.896,2,2,2h17v19h-17c-1.104,0-2-0.896-2-2V3"/>
				
					<line fill="none" stroke="#000000" stroke-linecap="round" stroke-linejoin="round" stroke-miterlimit="10" x1="4.5" y1="2.5" x2="20.5" y2="2.5"/>
			</g>
		</g>
	</g>
	<g id="New_icons_1_">
	</g>
</g>

</svg>
