<?xml version="1.0" encoding="utf-8"?>
<!-- Generator: Adobe Illustrator 16.0.3, SVG Export Plug-In . SVG Version: 6.00 Build 0)  -->
<!DOCTYPE svg PUBLIC "-//W3C//DTD SVG 1.1//EN" "http://www.w3.org/Graphics/SVG/1.1/DTD/svg11.dtd">
<svg version="1.1" xmlns="http://www.w3.org/2000/svg" xmlns:xlink="http://www.w3.org/1999/xlink" x="0px" y="0px" width="24px"
	 height="24px" viewBox="0 0 24 24" enable-background="new 0 0 24 24" xml:space="preserve">
<g id="Outline_Icons">
	<g>
		<path fill="none" stroke="#000000" stroke-linejoin="round" stroke-miterlimit="10" d="M10.5,2.501c0-2.583,11-2.583,11,0v21h-4
			v-4.116c-1.375,0-3.5,1.616-4.042,4.116H2.5l-1.5-1l0.029-1.274c3.892-5.383,7.952-4.209,10.196-6.309
			c0.468-0.438,0.696-1.073,0.617-1.709L10.5,2.501z"/>
		<path fill="none" stroke="#000000" stroke-linejoin="round" stroke-miterlimit="10" d="M17.5,0.629v6.372
			c0,0.828-0.672,1.5-1.5,1.5s-1.5-0.672-1.5-1.5V0.629"/>
		
			<line fill="none" stroke="#000000" stroke-linejoin="round" stroke-miterlimit="10" x1="1.021" y1="21.501" x2="14.316" y2="21.501"/>
		
			<line fill="none" stroke="#000000" stroke-linejoin="round" stroke-miterlimit="10" x1="17.5" y1="21.501" x2="21.5" y2="21.501"/>
	</g>
</g>

</svg>
