<?xml version="1.0" encoding="utf-8"?>
<!-- Generator: Adobe Illustrator 16.0.3, SVG Export Plug-In . SVG Version: 6.00 Build 0)  -->
<!DOCTYPE svg PUBLIC "-//W3C//DTD SVG 1.1//EN" "http://www.w3.org/Graphics/SVG/1.1/DTD/svg11.dtd">
<svg version="1.1" xmlns="http://www.w3.org/2000/svg" xmlns:xlink="http://www.w3.org/1999/xlink" x="0px" y="0px" width="24px"
	 height="24px" viewBox="0 0 24 24" enable-background="new 0 0 24 24" xml:space="preserve">
<g id="Outline_Icons">
	<g>
		<g>
			<g>
				<path d="M2.5,12C2.223,12,2,12.224,2,12.5S2.223,13,2.5,13C2.775,13,3,12.776,3,12.5S2.775,12,2.5,12L2.5,12z"/>
			</g>
		</g>
		<g>
			<g>
				<path d="M4.5,12C4.223,12,4,12.224,4,12.5S4.223,13,4.5,13C4.775,13,5,12.776,5,12.5S4.775,12,4.5,12L4.5,12z"/>
			</g>
		</g>
		<g>
			<g>
				<path d="M6.5,12C6.223,12,6,12.224,6,12.5S6.223,13,6.5,13C6.775,13,7,12.776,7,12.5S6.775,12,6.5,12L6.5,12z"/>
			</g>
		</g>
		<g>
			<g>
				<path d="M8.5,12C8.223,12,8,12.224,8,12.5S8.223,13,8.5,13C8.775,13,9,12.776,9,12.5S8.775,12,8.5,12L8.5,12z"/>
			</g>
		</g>
		<g>
			<g>
				<path d="M10.5,12c-0.277,0-0.5,0.224-0.5,0.5s0.223,0.5,0.5,0.5c0.275,0,0.5-0.224,0.5-0.5S10.775,12,10.5,12L10.5,12z"/>
			</g>
		</g>
		<g>
			<g>
				<path d="M12.5,12c-0.277,0-0.5,0.224-0.5,0.5s0.223,0.5,0.5,0.5c0.275,0,0.5-0.224,0.5-0.5S12.775,12,12.5,12L12.5,12z"/>
			</g>
		</g>
		<g>
			<g>
				<path d="M14.5,12c-0.277,0-0.5,0.224-0.5,0.5s0.223,0.5,0.5,0.5c0.275,0,0.5-0.224,0.5-0.5S14.775,12,14.5,12L14.5,12z"/>
			</g>
		</g>
		<g>
			<g>
				<path d="M16.5,12c-0.277,0-0.5,0.224-0.5,0.5s0.223,0.5,0.5,0.5c0.275,0,0.5-0.224,0.5-0.5S16.775,12,16.5,12L16.5,12z"/>
			</g>
		</g>
		<g>
			<g>
				<path d="M18.5,12c-0.277,0-0.5,0.224-0.5,0.5s0.223,0.5,0.5,0.5c0.275,0,0.5-0.224,0.5-0.5S18.775,12,18.5,12L18.5,12z"/>
			</g>
		</g>
		<g>
			<g>
				<path d="M20.5,12c-0.277,0-0.5,0.224-0.5,0.5s0.223,0.5,0.5,0.5c0.275,0,0.5-0.224,0.5-0.5S20.775,12,20.5,12L20.5,12z"/>
			</g>
		</g>
		<g>
			<g>
				<path d="M11.5,3C11.224,3,11,3.223,11,3.5C11,3.775,11.224,4,11.5,4S12,3.775,12,3.5C12,3.223,11.776,3,11.5,3L11.5,3z"/>
			</g>
		</g>
		<g>
			<g>
				<path d="M11.5,5C11.224,5,11,5.223,11,5.5C11,5.775,11.224,6,11.5,6S12,5.775,12,5.5C12,5.223,11.776,5,11.5,5L11.5,5z"/>
			</g>
		</g>
		<g>
			<g>
				<path d="M11.5,7C11.224,7,11,7.223,11,7.5C11,7.775,11.224,8,11.5,8S12,7.775,12,7.5C12,7.223,11.776,7,11.5,7L11.5,7z"/>
			</g>
		</g>
		<g>
			<g>
				<path d="M11.5,9C11.224,9,11,9.223,11,9.5c0,0.275,0.224,0.5,0.5,0.5S12,9.775,12,9.5C12,9.223,11.776,9,11.5,9L11.5,9z"/>
			</g>
		</g>
		<g>
			<g>
				<path d="M11.5,11c-0.276,0-0.5,0.223-0.5,0.5c0,0.275,0.224,0.5,0.5,0.5s0.5-0.225,0.5-0.5C12,11.223,11.776,11,11.5,11L11.5,11
					z"/>
			</g>
		</g>
		<g>
			<g>
				<path d="M11.5,13c-0.276,0-0.5,0.223-0.5,0.5c0,0.275,0.224,0.5,0.5,0.5s0.5-0.225,0.5-0.5C12,13.223,11.776,13,11.5,13L11.5,13
					z"/>
			</g>
		</g>
		<g>
			<g>
				<path d="M11.5,15c-0.276,0-0.5,0.223-0.5,0.5c0,0.275,0.224,0.5,0.5,0.5s0.5-0.225,0.5-0.5C12,15.223,11.776,15,11.5,15L11.5,15
					z"/>
			</g>
		</g>
		<g>
			<g>
				<path d="M11.5,17c-0.276,0-0.5,0.223-0.5,0.5c0,0.275,0.224,0.5,0.5,0.5s0.5-0.225,0.5-0.5C12,17.223,11.776,17,11.5,17L11.5,17
					z"/>
			</g>
		</g>
		<g>
			<g>
				<path d="M11.5,19c-0.276,0-0.5,0.223-0.5,0.5c0,0.275,0.224,0.5,0.5,0.5s0.5-0.225,0.5-0.5C12,19.223,11.776,19,11.5,19L11.5,19
					z"/>
			</g>
		</g>
		<g>
			<g>
				<path d="M11.5,21c-0.276,0-0.5,0.223-0.5,0.5c0,0.275,0.224,0.5,0.5,0.5s0.5-0.225,0.5-0.5C12,21.223,11.776,21,11.5,21L11.5,21
					z"/>
			</g>
		</g>
		<path fill="none" stroke="#000000" stroke-linejoin="round" stroke-miterlimit="10" d="M0.5,2.5c0-0.552,0.447-1,1-1h20
			c0.553,0,1,0.448,1,1v20c0,0.552-0.447,1-1,1h-20c-0.553,0-1-0.448-1-1V2.5z"/>
	</g>
</g>

</svg>
