<?xml version="1.0" encoding="utf-8"?>
<!-- Generator: Adobe Illustrator 16.0.3, SVG Export Plug-In . SVG Version: 6.00 Build 0)  -->
<!DOCTYPE svg PUBLIC "-//W3C//DTD SVG 1.1//EN" "http://www.w3.org/Graphics/SVG/1.1/DTD/svg11.dtd">
<svg version="1.1" xmlns="http://www.w3.org/2000/svg" xmlns:xlink="http://www.w3.org/1999/xlink" x="0px" y="0px" width="24px"
	 height="24px" viewBox="0 0 24 24" enable-background="new 0 0 24 24" xml:space="preserve">
<g id="Outline_Icons">
	<g>
		<path fill="none" stroke="#000000" stroke-linecap="round" stroke-linejoin="round" stroke-miterlimit="10" d="M5.5,8.503
			c0-1.625-0.847-2.911-2.469-2.996C1.301,5.416,0.5,6.792,0.5,8.503l0,0c0,7.206,5,8.047,5,8.047v4.953c0,1.104,0.896,2,2,2h10
			c1.104,0,2-0.896,2-2v-6.927c0,0,2.309-1.308,2.875-7.281c0.345-3.638-2.509-6.792-6.163-6.792H9.5c-2.209,0-4,1.791-4,4V8.503
			c0,2.209,1.791,3,4,3h7c2.209,0,2.979-1.479,2.979-4"/>
		<rect x="5.5" y="16.503" fill="none" stroke="#000000" stroke-linejoin="round" stroke-miterlimit="10" width="8" height="5"/>
	</g>
</g>

</svg>
