<?xml version="1.0" encoding="utf-8"?>
<!-- Generator: Adobe Illustrator 16.0.3, SVG Export Plug-In . SVG Version: 6.00 Build 0)  -->
<!DOCTYPE svg PUBLIC "-//W3C//DTD SVG 1.1//EN" "http://www.w3.org/Graphics/SVG/1.1/DTD/svg11.dtd">
<svg version="1.1" xmlns="http://www.w3.org/2000/svg" xmlns:xlink="http://www.w3.org/1999/xlink" x="0px" y="0px" width="24px"
	 height="24px" viewBox="0 0 24 24" enable-background="new 0 0 24 24" xml:space="preserve">
<g id="Outline_Icons_1_">
	<g id="Outline_Icons">
		<g>
			<g>
				<path fill="none" stroke="#000000" stroke-linejoin="round" stroke-miterlimit="10" d="M18,23.5c0,0,5.5-4,5.5-6.963
					c0-3.42-4.5-4.5-5.5-0.342c-1-4.158-5.5-3.078-5.5,0.342C12.5,19.5,18,23.5,18,23.5z"/>
			</g>
			<g>
				<path fill="none" stroke="#000000" stroke-linecap="round" stroke-linejoin="round" stroke-miterlimit="10" d="M9.5,17.436
					C8.613,17.36,7.719,17.219,7,17l-5.5,2.5l2-4.5c-1.929-1.543-3-3.624-3-6.001C0.5,4.305,5.164,0.5,10.918,0.5S21.5,4.305,21.5,9
					c0,0.34-0.024,0.674-0.072,1.001"/>
			</g>
		</g>
	</g>
	<g id="New_icons_1_">
	</g>
</g>

</svg>
