<?xml version="1.0" encoding="utf-8"?>
<!-- Generator: Adobe Illustrator 16.0.3, SVG Export Plug-In . SVG Version: 6.00 Build 0)  -->
<!DOCTYPE svg PUBLIC "-//W3C//DTD SVG 1.1//EN" "http://www.w3.org/Graphics/SVG/1.1/DTD/svg11.dtd">
<svg version="1.1" xmlns="http://www.w3.org/2000/svg" xmlns:xlink="http://www.w3.org/1999/xlink" x="0px" y="0px" width="24px"
	 height="24px" viewBox="0 0 24 24" enable-background="new 0 0 24 24" xml:space="preserve">
<g id="Outline_Icons">
	<g>
		<path fill="none" stroke="#000000" stroke-linejoin="round" stroke-miterlimit="10" d="M23.5,18.5c0,1.104-0.896,2-2,2h-19
			c-1.104,0-2-0.896-2-2v-13c0-1.104,0.896-2,2-2h19c1.104,0,2,0.896,2,2V18.5z"/>
		<polygon fill="none" stroke="#000000" stroke-linejoin="round" stroke-miterlimit="10" points="16.5,13.892 18.377,12.016 
			16.5,10.139 16.5,7.5 13.877,7.5 12,5.623 10.123,7.5 7.5,7.5 7.5,10.139 5.623,12.016 7.5,13.892 7.5,16.5 10.123,16.5 
			12,18.376 13.876,16.5 16.5,16.5 		"/>
		<path fill="none" stroke="#000000" stroke-linejoin="round" stroke-miterlimit="10" d="M11.5,9c2,0,3,1.343,3,3c0,1.657-1,3-3,3V9
			z"/>
	</g>
</g>

</svg>
