<?xml version="1.0" encoding="utf-8"?>
<!-- Generator: Adobe Illustrator 16.0.3, SVG Export Plug-In . SVG Version: 6.00 Build 0)  -->
<!DOCTYPE svg PUBLIC "-//W3C//DTD SVG 1.1//EN" "http://www.w3.org/Graphics/SVG/1.1/DTD/svg11.dtd">
<svg version="1.1" xmlns="http://www.w3.org/2000/svg" xmlns:xlink="http://www.w3.org/1999/xlink" x="0px" y="0px" width="24px"
	 height="24px" viewBox="0 0 24 24" enable-background="new 0 0 24 24" xml:space="preserve">
<g id="Outline_Icons">
	<g>
		<path fill="none" stroke="#000000" stroke-linejoin="round" stroke-miterlimit="10" d="M17.107,1.006
			c-0.59,1.769,1.179,3.536,2.946,2.947C19.464,5.721,21.232,7.488,23,6.899c0,0-4.125,2.946-6.482,0.589
			C14.161,5.131,17.107,1.006,17.107,1.006z"/>
		<path fill="none" stroke="#000000" stroke-linejoin="round" stroke-miterlimit="10" d="M7.443,22.456
			c0.59-1.769-1.179-3.536-2.946-2.946c0.59-1.769-1.179-3.536-2.946-2.946c0,0,4.125-2.946,6.482-0.59
			C10.39,18.331,7.443,22.456,7.443,22.456z"/>
		<circle fill="none" stroke="#000000" stroke-linejoin="round" stroke-miterlimit="10" cx="12.275" cy="11.731" r="5.5"/>
		<path fill="none" stroke="#000000" stroke-linejoin="round" stroke-miterlimit="10" d="M17.742,12.241
			c-3.135,2.638-7.725,2.653-10.876,0.048"/>
		<path fill="none" stroke="#000000" stroke-linejoin="round" stroke-miterlimit="10" d="M16.955,8.829
			c-2.827,1.868-6.525,1.869-9.354,0.003"/>
	</g>
</g>

</svg>
