<?xml version="1.0" encoding="utf-8"?>
<!-- Generator: Adobe Illustrator 16.0.3, SVG Export Plug-In . SVG Version: 6.00 Build 0)  -->
<!DOCTYPE svg PUBLIC "-//W3C//DTD SVG 1.1//EN" "http://www.w3.org/Graphics/SVG/1.1/DTD/svg11.dtd">
<svg version="1.1" xmlns="http://www.w3.org/2000/svg" xmlns:xlink="http://www.w3.org/1999/xlink" x="0px" y="0px" width="24px"
	 height="24px" viewBox="0 0 24 24" enable-background="new 0 0 24 24" xml:space="preserve">
<g id="Outline_Icons">
	<g>
		<path fill="none" stroke="#000000" stroke-linecap="round" stroke-linejoin="round" stroke-miterlimit="10" d="M19.5,23.5l-2-13
			h-11l-2,13h6v-4c0-0.83,0.672-1.5,1.5-1.5s1.5,0.67,1.5,1.5v4H19.5z"/>
		<path fill="none" stroke="#000000" stroke-linecap="round" stroke-linejoin="round" stroke-miterlimit="10" d="M3.5,2.5V9
			c0,0.828,0.672,1.5,1.5,1.5h14c0.828,0,1.5-0.672,1.5-1.5V2.5h-3V4c0,0.829-0.671,1.5-1.5,1.5S14.5,4.829,14.5,4V2.5h-5V4
			c0,0.829-0.671,1.5-1.5,1.5C7.173,5.5,6.5,4.827,6.5,4V2.5H3.5z"/>
		
			<circle fill="none" stroke="#000000" stroke-linecap="round" stroke-linejoin="round" stroke-miterlimit="10" cx="12" cy="14" r="1.5"/>
	</g>
</g>

</svg>
