<?xml version="1.0" encoding="utf-8"?>
<!-- Generator: Adobe Illustrator 16.0.3, SVG Export Plug-In . SVG Version: 6.00 Build 0)  -->
<!DOCTYPE svg PUBLIC "-//W3C//DTD SVG 1.1//EN" "http://www.w3.org/Graphics/SVG/1.1/DTD/svg11.dtd">
<svg version="1.1" xmlns="http://www.w3.org/2000/svg" xmlns:xlink="http://www.w3.org/1999/xlink" x="0px" y="0px" width="24px"
	 height="24px" viewBox="0 0 24 24" enable-background="new 0 0 24 24" xml:space="preserve">
<g id="Outline_Icons_1_">
	<g id="Outline_Icons">
		<g>
			<path fill="none" stroke="#000000" stroke-linecap="round" stroke-linejoin="round" stroke-miterlimit="10" d="M14.5,1.5h-10
				c-2.209,0-4,1.791-4,4v4c0,2.21,1.791,4,4,4h1v4l4.5-4h4.5c2.209,0,4-1.79,4-4v-4C18.5,3.291,16.709,1.5,14.5,1.5z"/>
			<path fill="none" stroke="#000000" stroke-linecap="round" stroke-linejoin="round" stroke-miterlimit="10" d="M11.5,17
				c0,1.381,1.119,2.5,2.5,2.5h2.5l3,3v-3H21c1.381,0,2.5-1.119,2.5-2.5v-2c0-1.381-1.119-2.5-2.5-2.5"/>
		</g>
	</g>
	<g id="New_icons_1_">
	</g>
</g>

</svg>
