<?xml version="1.0" encoding="utf-8"?>
<!-- Generator: Adobe Illustrator 16.0.3, SVG Export Plug-In . SVG Version: 6.00 Build 0)  -->
<!DOCTYPE svg PUBLIC "-//W3C//DTD SVG 1.1//EN" "http://www.w3.org/Graphics/SVG/1.1/DTD/svg11.dtd">
<svg version="1.1" xmlns="http://www.w3.org/2000/svg" xmlns:xlink="http://www.w3.org/1999/xlink" x="0px" y="0px" width="24px"
	 height="24px" viewBox="0 0 24 24" enable-background="new 0 0 24 24" xml:space="preserve">
<g id="Outline_Icons">
	<g>
		<path fill="none" stroke="#000000" stroke-linejoin="round" stroke-miterlimit="10" d="M12.54,6.619
			c0.281-0.281,0.439-0.663,0.439-1.061s-0.158-0.779-0.439-1.061s-0.663-0.439-1.061-0.439c-0.398,0-0.779,0.158-1.062,0.439
			l-1.909,1.91V2.529c0-0.829-0.672-1.5-1.5-1.5s-1.5,0.671-1.5,1.5v3.879L3.629,4.529C3.348,4.248,2.966,4.09,2.569,4.09
			c-0.398,0-0.779,0.158-1.061,0.439S1.069,5.191,1.069,5.59c0,0.397,0.158,0.779,0.439,1.061l4,4v3.879c0,0.828,0.672,1.5,1.5,1.5
			s1.5-0.672,1.5-1.5V10.65L12.54,6.619z"/>
		<path fill="none" stroke="#000000" stroke-linejoin="round" stroke-miterlimit="10" d="M22.602,16.136
			c0.364-0.16,0.65-0.458,0.795-0.829c0.145-0.37,0.136-0.783-0.024-1.148c-0.16-0.363-0.459-0.649-0.829-0.793
			c-0.371-0.145-0.784-0.137-1.148,0.023l-2.473,1.088l1.407-3.615c0.301-0.771-0.081-1.641-0.854-1.941s-1.642,0.081-1.942,0.854
			l-1.406,3.613l-1.069-2.432c-0.16-0.364-0.458-0.65-0.829-0.794c-0.37-0.145-0.783-0.136-1.147,0.024s-0.65,0.459-0.794,0.829
			c-0.145,0.37-0.137,0.784,0.023,1.147l2.276,5.179l-1.407,3.614c-0.301,0.772,0.082,1.642,0.854,1.942
			c0.772,0.3,1.642-0.081,1.942-0.854l1.407-3.614L22.602,16.136z"/>
	</g>
</g>

</svg>
