<?xml version="1.0" encoding="utf-8"?>
<!-- Generator: Adobe Illustrator 16.0.3, SVG Export Plug-In . SVG Version: 6.00 Build 0)  -->
<!DOCTYPE svg PUBLIC "-//W3C//DTD SVG 1.1//EN" "http://www.w3.org/Graphics/SVG/1.1/DTD/svg11.dtd">
<svg version="1.1" xmlns="http://www.w3.org/2000/svg" xmlns:xlink="http://www.w3.org/1999/xlink" x="0px" y="0px" width="24px"
	 height="24px" viewBox="0 0 24 24" enable-background="new 0 0 24 24" xml:space="preserve">
<g id="Outline_Icons_1_">
	<g id="Outline_Icons">
		<g>
			<g>
				<path fill="none" stroke="#000000" stroke-linejoin="round" stroke-miterlimit="10" d="M23.5,17.5
					c0-2.797-2.31-5.096-5.18-4.991C17.198,10.142,14.793,8.5,12,8.5c-3.726,0-6.762,2.91-6.979,6.58
					C2.688,14.593,0.5,16.369,0.5,18.75c0,3.81,4,3.75,4,3.75H19C19,22.5,23.5,21.914,23.5,17.5z"/>
			</g>
			<path fill="none" stroke="#000000" stroke-linecap="round" stroke-linejoin="round" stroke-miterlimit="10" d="M16.276,2.929
				c-1.35-0.901-2.97-1.429-4.714-1.429c-1.745,0-3.365,0.527-4.715,1.429"/>
			<path fill="none" stroke="#000000" stroke-linecap="round" stroke-linejoin="round" stroke-miterlimit="10" d="M15.167,4.592
				C14.136,3.904,12.896,3.5,11.562,3.5S8.989,3.904,7.957,4.592"/>
			<path fill="none" stroke="#000000" stroke-linecap="round" stroke-linejoin="round" stroke-miterlimit="10" d="M14.059,6.256
				C13.344,5.779,12.485,5.5,11.562,5.5c-0.924,0-1.782,0.279-2.496,0.756"/>
		</g>
	</g>
	<g id="New_icons_1_">
	</g>
</g>

</svg>
