<?xml version="1.0" encoding="utf-8"?>
<!-- Generator: Adobe Illustrator 16.0.3, SVG Export Plug-In . SVG Version: 6.00 Build 0)  -->
<!DOCTYPE svg PUBLIC "-//W3C//DTD SVG 1.1//EN" "http://www.w3.org/Graphics/SVG/1.1/DTD/svg11.dtd">
<svg version="1.1" xmlns="http://www.w3.org/2000/svg" xmlns:xlink="http://www.w3.org/1999/xlink" x="0px" y="0px" width="24px"
	 height="24px" viewBox="0 0 24 24" enable-background="new 0 0 24 24" xml:space="preserve">
<g id="Outline_Icons_1_">
	<g id="Outline_Icons">
		<g>
			
				<line fill="none" stroke="#000000" stroke-linecap="round" stroke-linejoin="round" stroke-miterlimit="10" x1="1.277" y1="1.275" x2="22.726" y2="22.724"/>
			<path fill="none" stroke="#000000" stroke-linecap="round" stroke-linejoin="round" stroke-miterlimit="10" d="M22.015,17.08
				c0.819-0.75,1.486-1.883,1.486-3.58c0-2.797-2.31-5.098-5.18-4.991C17.199,6.142,14.794,4.5,12.001,4.5
				c-1.047,0-2.039,0.229-2.93,0.642"/>
			<path fill="none" stroke="#000000" stroke-linecap="round" stroke-linejoin="round" stroke-miterlimit="10" d="M5.454,9.037
				c-0.24,0.641-0.389,1.326-0.432,2.043c-2.334-0.487-4.521,1.289-4.521,3.67c0,3.81,4,3.75,4,3.75H15"/>
		</g>
	</g>
	<g id="New_icons_1_">
	</g>
</g>

</svg>
