<?xml version="1.0" encoding="utf-8"?>
<!-- Generator: Adobe Illustrator 16.0.3, SVG Export Plug-In . SVG Version: 6.00 Build 0)  -->
<!DOCTYPE svg PUBLIC "-//W3C//DTD SVG 1.1//EN" "http://www.w3.org/Graphics/SVG/1.1/DTD/svg11.dtd">
<svg version="1.1" xmlns="http://www.w3.org/2000/svg" xmlns:xlink="http://www.w3.org/1999/xlink" x="0px" y="0px" width="24px"
	 height="24px" viewBox="0 0 24 24" enable-background="new 0 0 24 24" xml:space="preserve">
<g id="Outline_Icons_1_">
	<g id="Outline_Icons">
		<g>
			<path fill="none" stroke="#000000" stroke-linecap="round" stroke-linejoin="round" stroke-miterlimit="10" d="M19.195,15
				c0,0,4.305-0.463,4.305-4.684c0-2.677-2.209-4.827-4.955-4.726c-1.073-2.266-3.373-3.81-6.045-3.81
				c-3.563,0-6.468,2.794-6.676,6.305C3.593,7.62,1.5,9.228,1.5,11.505c0,2.412,1.677,3.162,2.811,3.396"/>
			<path fill="none" stroke="#000000" stroke-linecap="round" stroke-linejoin="round" stroke-miterlimit="10" d="M15.5,14.5
				c0-0.551-0.447-1-1-1h-4c-0.553,0-1,0.449-1,1v8c0,0.552,0.447,1,1,1h4c0.553,0,1-0.448,1-1V14.5z"/>
			
				<line fill="none" stroke="#000000" stroke-linecap="round" stroke-linejoin="round" stroke-miterlimit="10" x1="9.5" y1="21.5" x2="15.5" y2="21.5"/>
			
				<line fill="none" stroke="#000000" stroke-linecap="round" stroke-linejoin="round" stroke-miterlimit="10" x1="12.5" y1="11" x2="12.5" y2="5.5"/>
			<polyline fill="none" stroke="#000000" stroke-linecap="round" stroke-linejoin="round" stroke-miterlimit="10" points="10.5,9 
				12.5,11 14.5,9 			"/>
		</g>
	</g>
	<g id="New_icons_1_">
	</g>
</g>

</svg>
