<?xml version="1.0" encoding="utf-8"?>
<!-- Generator: Adobe Illustrator 16.0.3, SVG Export Plug-In . SVG Version: 6.00 Build 0)  -->
<!DOCTYPE svg PUBLIC "-//W3C//DTD SVG 1.1//EN" "http://www.w3.org/Graphics/SVG/1.1/DTD/svg11.dtd">
<svg version="1.1" xmlns="http://www.w3.org/2000/svg" xmlns:xlink="http://www.w3.org/1999/xlink" x="0px" y="0px" width="24px"
	 height="24px" viewBox="0 0 24 24" enable-background="new 0 0 24 24" xml:space="preserve">
<g id="Outline_Icons_1_">
	<g id="Outline_Icons">
		<g>
			<path fill="none" stroke="#000000" stroke-linecap="round" stroke-linejoin="round" stroke-miterlimit="10" d="M19.195,16.392
				c0,0,4.305-0.561,4.305-4.782c0-2.676-2.208-4.875-4.955-4.775C17.473,4.57,15.172,3,12.5,3C8.938,3,6.032,5.783,5.825,9.295
				C3.593,8.828,1.5,10.527,1.5,12.805c0,3.645,3.826,3.587,3.826,3.587"/>
			<path fill="none" stroke="#000000" stroke-linecap="round" stroke-linejoin="round" stroke-miterlimit="10" d="M15.964,14.5
				c0.341,0.588,0.536,1.271,0.536,2c0,2.209-1.791,4-4,4c-2.21,0-4-1.791-4-4s1.79-4,4-4h1"/>
			<polyline fill="none" stroke="#000000" stroke-linecap="round" stroke-linejoin="round" stroke-miterlimit="10" points="12,11 
				13.5,12.5 12,14 			"/>
		</g>
	</g>
	<g id="New_icons_1_">
	</g>
</g>

</svg>
