<?xml version="1.0" encoding="utf-8"?>
<!-- Generator: Adobe Illustrator 16.0.3, SVG Export Plug-In . SVG Version: 6.00 Build 0)  -->
<!DOCTYPE svg PUBLIC "-//W3C//DTD SVG 1.1//EN" "http://www.w3.org/Graphics/SVG/1.1/DTD/svg11.dtd">
<svg version="1.1" xmlns="http://www.w3.org/2000/svg" xmlns:xlink="http://www.w3.org/1999/xlink" x="0px" y="0px" width="24px"
	 height="24px" viewBox="0 0 24 24" enable-background="new 0 0 24 24" xml:space="preserve">
<g id="Outline_Icons_1_">
	<g id="Outline_Icons">
	</g>
	<g id="New_icons_1_">
		<g>
			<path fill="none" stroke="#000000" stroke-linecap="round" stroke-linejoin="round" stroke-miterlimit="10" d="M19.195,14
				c0,0,4.305-0.561,4.305-4.783c0-2.675-2.209-4.874-4.955-4.773c-1.073-2.266-3.373-3.835-6.045-3.835
				c-3.563,0-6.468,2.784-6.676,6.294C3.592,6.436,1.5,8.135,1.5,10.412C1.5,14.057,5.326,14,5.326,14"/>
			<polygon fill="none" stroke="#000000" stroke-linejoin="round" stroke-miterlimit="10" points="12.5,9.5 8.5,16.5 11.5,16.5 
				11.5,21.5 15.5,14.5 12.5,14.5 			"/>
		</g>
	</g>
</g>

</svg>
