<?xml version="1.0" encoding="utf-8"?>
<!-- Generator: Adobe Illustrator 16.0.3, SVG Export Plug-In . SVG Version: 6.00 Build 0)  -->
<!DOCTYPE svg PUBLIC "-//W3C//DTD SVG 1.1//EN" "http://www.w3.org/Graphics/SVG/1.1/DTD/svg11.dtd">
<svg version="1.1" xmlns="http://www.w3.org/2000/svg" xmlns:xlink="http://www.w3.org/1999/xlink" x="0px" y="0px" width="24px"
	 height="24px" viewBox="0 0 24 24" enable-background="new 0 0 24 24" xml:space="preserve">
<g id="Outline_Icons_1_">
	<g id="Outline_Icons">
		<g>
			<path fill="none" stroke="#000000" stroke-linecap="round" stroke-linejoin="round" stroke-miterlimit="10" d="M16.74,16.5h1.455
				c0,0,4.305-0.561,4.305-4.783c0-2.675-2.209-4.874-4.955-4.773c-1.073-2.266-3.373-3.835-6.045-3.835
				c-3.563,0-6.468,2.784-6.676,6.294C2.592,8.936,0.5,10.635,0.5,12.912c0,3.645,3.826,3.588,3.826,3.588h1.906"/>
			
				<line fill="none" stroke="#000000" stroke-linecap="round" stroke-linejoin="round" stroke-miterlimit="10" x1="11.5" y1="22" x2="11.5" y2="12"/>
			<polyline fill="none" stroke="#000000" stroke-linecap="round" stroke-linejoin="round" stroke-miterlimit="10" points="8.5,19 
				11.5,22 14.5,19 			"/>
		</g>
	</g>
	<g id="New_icons_1_">
	</g>
</g>

</svg>
