<?xml version="1.0" encoding="utf-8"?>
<!-- Generator: Adobe Illustrator 16.0.3, SVG Export Plug-In . SVG Version: 6.00 Build 0)  -->
<!DOCTYPE svg PUBLIC "-//W3C//DTD SVG 1.1//EN" "http://www.w3.org/Graphics/SVG/1.1/DTD/svg11.dtd">
<svg version="1.1" xmlns="http://www.w3.org/2000/svg" xmlns:xlink="http://www.w3.org/1999/xlink" x="0px" y="0px" width="24px"
	 height="24px" viewBox="0 0 24 24" enable-background="new 0 0 24 24" xml:space="preserve">
<g id="Outline_Icons">
	<g>
		<path fill="none" stroke="#000000" stroke-linecap="round" stroke-linejoin="round" stroke-miterlimit="10" d="M20,12.5l-9-9
			L2.5,12c-0.781,0.781-0.781,2.047,0,2.829L7.172,19.5c0.781,0.781,2.047,0.781,2.828,0l7-7H20z"/>
		<path fill="none" stroke="#000000" stroke-linecap="round" stroke-linejoin="round" stroke-miterlimit="10" d="M10.5,10.5v-8
			c0-1.101-0.9-2-2-2l0,0c-1.1,0-2,0.899-2,2v5.516"/>
		<path fill="none" stroke="#000000" stroke-linecap="round" stroke-linejoin="round" stroke-miterlimit="10" d="M23.5,21
			c0,1.381-1.119,2.5-2.5,2.5s-2.5-1.119-2.5-2.5s2.5-5.5,2.5-5.5S23.5,19.619,23.5,21z"/>
	</g>
</g>

</svg>
