<?xml version="1.0" encoding="utf-8"?>
<!-- Generator: Adobe Illustrator 16.0.3, SVG Export Plug-In . SVG Version: 6.00 Build 0)  -->
<!DOCTYPE svg PUBLIC "-//W3C//DTD SVG 1.1//EN" "http://www.w3.org/Graphics/SVG/1.1/DTD/svg11.dtd">
<svg version="1.1" xmlns="http://www.w3.org/2000/svg" xmlns:xlink="http://www.w3.org/1999/xlink" x="0px" y="0px" width="24px"
	 height="24px" viewBox="0 0 24 24" enable-background="new 0 0 24 24" xml:space="preserve">
<g id="Outline_Icons">
	<g>
		
			<rect x="15.007" y="2.982" transform="matrix(-0.7071 -0.7071 0.7071 -0.7071 29.503 21.7206)" fill="none" stroke="#000000" stroke-linejoin="round" stroke-miterlimit="10" width="8.485" height="3.536"/>
		
			<rect x="8.964" y="3.722" transform="matrix(-0.7071 -0.7071 0.7071 -0.7071 13.2071 28.4706)" fill="none" stroke="#000000" stroke-linejoin="round" stroke-miterlimit="10" width="7.071" height="15.556"/>
		<path fill="none" stroke="#000000" stroke-linejoin="round" stroke-miterlimit="10" d="M9,19l-3.5,3.5
			c-1.171,1.171-2.829,1.171-4,0s-1.171-2.829,0-4L5,15"/>
		
			<rect x="11.086" y="7.257" transform="matrix(-0.7071 -0.7071 0.7071 -0.7071 13.2071 28.4706)" fill="none" stroke="#000000" stroke-linejoin="round" stroke-miterlimit="10" width="2.828" height="8.485"/>
		<line fill="none" stroke="#000000" stroke-linejoin="round" stroke-miterlimit="10" x1="17" y1="5" x2="19.5" y2="2.5"/>
		<line fill="none" stroke="#000000" stroke-linejoin="round" stroke-miterlimit="10" x1="19" y1="7" x2="21.5" y2="4.5"/>
	</g>
</g>

</svg>
