<?xml version="1.0" encoding="utf-8"?>
<!-- Generator: Adobe Illustrator 16.0.3, SVG Export Plug-In . SVG Version: 6.00 Build 0)  -->
<!DOCTYPE svg PUBLIC "-//W3C//DTD SVG 1.1//EN" "http://www.w3.org/Graphics/SVG/1.1/DTD/svg11.dtd">
<svg version="1.1" xmlns="http://www.w3.org/2000/svg" xmlns:xlink="http://www.w3.org/1999/xlink" x="0px" y="0px" width="24px"
	 height="24px" viewBox="0 0 24 24" enable-background="new 0 0 24 24" xml:space="preserve">
<g id="Outline_Icons">
	<g>
		<circle fill="none" stroke="#000000" stroke-linejoin="round" stroke-miterlimit="10" cx="18" cy="18" r="5.5"/>
		<polyline fill="none" stroke="#000000" stroke-linejoin="round" stroke-miterlimit="10" points="19.881,12.831 11.636,1.029 
			11.223,7.099 3.18,3.828 7.069,11.252 1.029,11.637 12.83,19.882 		"/>
		
			<line fill="none" stroke="#000000" stroke-linecap="round" stroke-linejoin="round" stroke-miterlimit="10" x1="14.662" y1="10.662" x2="13" y2="8"/>
		
			<line fill="none" stroke="#000000" stroke-linecap="round" stroke-linejoin="round" stroke-miterlimit="10" x1="10.6" y1="14.6" x2="8" y2="13"/>
		
			<line fill="none" stroke="#000000" stroke-linecap="round" stroke-linejoin="round" stroke-miterlimit="10" x1="12.6" y1="12.6" x2="10" y2="10"/>
		<path fill="none" stroke="#000000" stroke-linejoin="round" stroke-miterlimit="10" d="M21.889,14.111
			c-0.496-0.496-1.068-0.865-1.673-1.132c-0.759,0.526-1.257,1.401-1.257,2.396c0,1.611,1.306,2.916,2.917,2.916
			c0.594,0,1.146-0.18,1.606-0.484C23.434,16.465,22.913,15.136,21.889,14.111z"/>
		<path fill="none" stroke="#000000" stroke-linejoin="round" stroke-miterlimit="10" d="M17,20c-1.104,0-2,0.896-2,2
			c0,0.237,0.049,0.462,0.125,0.674c0.984,0.605,2.11,0.863,3.227,0.793C18.747,23.101,19,22.582,19,22C19,20.896,18.104,20,17,20z"
			/>
	</g>
</g>

</svg>
