<?xml version="1.0" encoding="utf-8"?>
<!-- Generator: Adobe Illustrator 16.0.3, SVG Export Plug-In . SVG Version: 6.00 Build 0)  -->
<!DOCTYPE svg PUBLIC "-//W3C//DTD SVG 1.1//EN" "http://www.w3.org/Graphics/SVG/1.1/DTD/svg11.dtd">
<svg version="1.1" xmlns="http://www.w3.org/2000/svg" xmlns:xlink="http://www.w3.org/1999/xlink" x="0px" y="0px" width="24px"
	 height="24px" viewBox="0 0 24 24" enable-background="new 0 0 24 24" xml:space="preserve">
<g id="Outline_Icons_1_">
	<g id="Outline_Icons">
		<path fill="none" stroke="#000000" stroke-linecap="round" stroke-linejoin="round" stroke-miterlimit="10" d="M21,22.5H3
			c-1.984,0-1.986-3,0-3h18C22.984,19.5,22.986,22.5,21,22.5z"/>
		<path fill="none" stroke="#000000" stroke-linecap="round" stroke-linejoin="round" stroke-miterlimit="10" d="M17.646,16.53
			C17.875,15.896,18,15.212,18,14.5c0-3.313-2.687-6-6-6s-6,2.687-6,6c0,0.698,0.119,1.368,0.338,1.991"/>
		<circle fill="none" stroke="#000000" stroke-linejoin="round" stroke-miterlimit="10" cx="12" cy="3.5" r="3"/>
		
			<line fill="none" stroke="#000000" stroke-linecap="round" stroke-linejoin="round" stroke-miterlimit="10" x1="9" y1="3.5" x2="15" y2="3.5"/>
		
			<line fill="none" stroke="#000000" stroke-linecap="round" stroke-linejoin="round" stroke-miterlimit="10" x1="12" y1="6.5" x2="12" y2="8.5"/>
		<path fill="none" stroke="#000000" stroke-linejoin="round" stroke-miterlimit="10" d="M9.248,9.166C8.424,8.741,7.49,8.5,6.5,8.5
			c-3.313,0-6,2.687-6,6c0,2.088,1.068,3.925,2.686,5h17.629c1.617-1.075,2.686-2.912,2.686-5c0-3.313-2.687-6-6-6
			c-0.991,0-1.926,0.241-2.75,0.667"/>
	</g>
	<g id="New_icons_1_">
	</g>
</g>

</svg>
