<?xml version="1.0" encoding="utf-8"?>
<!-- Generator: Adobe Illustrator 16.0.3, SVG Export Plug-In . SVG Version: 6.00 Build 0)  -->
<!DOCTYPE svg PUBLIC "-//W3C//DTD SVG 1.1//EN" "http://www.w3.org/Graphics/SVG/1.1/DTD/svg11.dtd">
<svg version="1.1" xmlns="http://www.w3.org/2000/svg" xmlns:xlink="http://www.w3.org/1999/xlink" x="0px" y="0px" width="24px"
	 height="24px" viewBox="0 0 24 24" enable-background="new 0 0 24 24" xml:space="preserve">
<g id="Outline_Icons">
	<g>
		<path fill="none" stroke="#000000" stroke-linecap="round" stroke-linejoin="round" stroke-miterlimit="10" d="M22.498,18.388
			c-2.169,0.521-3.516-1.979-3.516-1.979s-1.03,2.056-3.139,2.056c-2.021,0-3.131-2.056-3.131-2.056S11.609,18.5,9.5,18.5"/>
		<path fill="none" stroke="#000000" stroke-linecap="round" stroke-linejoin="round" stroke-miterlimit="10" d="M22.5,22.423
			c-2.169,0.521-3.519-1.979-3.519-1.979S17.954,22.5,15.845,22.5c-2.021,0-3.134-2.056-3.134-2.056s-0.452,0.86-1.333,1.477"/>
		<path fill="none" stroke="#000000" stroke-linecap="round" stroke-linejoin="round" stroke-miterlimit="10" d="M22.498,13.888
			c-2.169,0.521-3.516-1.979-3.516-1.979s-1.03,2.056-3.139,2.056c-2.021,0-3.131-2.056-3.131-2.056S11.609,14,9.5,14"/>
		<path fill="none" stroke="#000000" stroke-linecap="round" stroke-linejoin="round" stroke-miterlimit="10" d="M10.502,23.5
			c0,0-5.5-4-5.5-16c-2.75,0-4.5,0-4.5,0v16H10.502z"/>
	</g>
</g>

</svg>
