<?xml version="1.0" encoding="utf-8"?>
<!-- Generator: Adobe Illustrator 16.0.3, SVG Export Plug-In . SVG Version: 6.00 Build 0)  -->
<!DOCTYPE svg PUBLIC "-//W3C//DTD SVG 1.1//EN" "http://www.w3.org/Graphics/SVG/1.1/DTD/svg11.dtd">
<svg version="1.1" xmlns="http://www.w3.org/2000/svg" xmlns:xlink="http://www.w3.org/1999/xlink" x="0px" y="0px" width="24px"
	 height="24px" viewBox="0 0 24 24" enable-background="new 0 0 24 24" xml:space="preserve">
<g id="Outline_Icons">
	<g>
		<path fill="none" stroke="#000000" stroke-linejoin="round" stroke-miterlimit="10" d="M19.5,11.5h-15v1
			c0,1.85,1.006,3.467,2.5,4.331c1.544,0.893,2.5,2.547,2.5,4.331V23.5h5v-2.339c0-1.785,0.954-3.436,2.5-4.331
			c1.494-0.864,2.5-2.481,2.5-4.331V11.5z"/>
		<path fill="none" stroke="#000000" stroke-linejoin="round" stroke-miterlimit="10" d="M11.5,11.5v-8C11.5,2.119,12.619,1,14,1
			s2.5,1.119,2.5,2.5v2"/>
		<path fill="none" stroke="#000000" stroke-linecap="round" stroke-linejoin="round" stroke-miterlimit="10" d="M16.5,7
			c0,0,2,2.5,0,2.5S16.5,7,16.5,7z"/>
	</g>
</g>

</svg>
