<?xml version="1.0" encoding="utf-8"?>
<!-- Generator: Adobe Illustrator 16.0.3, SVG Export Plug-In . SVG Version: 6.00 Build 0)  -->
<!DOCTYPE svg PUBLIC "-//W3C//DTD SVG 1.1//EN" "http://www.w3.org/Graphics/SVG/1.1/DTD/svg11.dtd">
<svg version="1.1" xmlns="http://www.w3.org/2000/svg" xmlns:xlink="http://www.w3.org/1999/xlink" x="0px" y="0px" width="24px"
	 height="24px" viewBox="0 0 24 24" enable-background="new 0 0 24 24" xml:space="preserve">
<g id="Outline_Icons">
	<g>
		<path fill="none" stroke="#000000" stroke-linecap="round" stroke-linejoin="round" stroke-miterlimit="10" d="M21.5,9.521h-6
			c0.813-1.028,1.5-2.422,1.5-4c0-3.69-3-5-5-5s-5,1.31-5,5c0,1.578,0.687,2.972,1.5,4h-6v3h8v11h3v-11h8V9.521z M12,3.521
			c1.5,0,2,0.88,2,2c0,1.5-2,3-2,3s-2-1.5-2-3C10,4.4,10.5,3.521,12,3.521z"/>
	</g>
</g>

</svg>
