<?xml version="1.0" encoding="utf-8"?>
<!-- Generator: Adobe Illustrator 16.0.3, SVG Export Plug-In . SVG Version: 6.00 Build 0)  -->
<!DOCTYPE svg PUBLIC "-//W3C//DTD SVG 1.1//EN" "http://www.w3.org/Graphics/SVG/1.1/DTD/svg11.dtd">
<svg version="1.1" xmlns="http://www.w3.org/2000/svg" xmlns:xlink="http://www.w3.org/1999/xlink" x="0px" y="0px" width="24px"
	 height="24px" viewBox="0 0 24 24" enable-background="new 0 0 24 24" xml:space="preserve">
<g id="Outline_Icons">
	<g>
		<g>
			<path fill="none" stroke="#000000" stroke-linejoin="round" stroke-miterlimit="10" d="M14.025,18.881l1.269-2.198l-1.269-0.732
				c0.132-0.599,0.142-1.198-0.001-1.837l1.27-0.732l-1.269-2.198l-1.222,0.733c-0.45-0.413-1.113-0.733-1.535-0.919V9.532H8.729
				v1.465c-0.846,0.186-1.188,0.506-1.637,0.92l-1.299-0.734l-1.281,2.198l1.262,0.732c-0.131,0.593-0.145,1.194-0.002,1.837
				L4.5,16.684l1.269,2.198l1.322-0.734c0.451,0.414,0.793,0.734,1.639,0.921v1.464h2.539v-1.464
				c0.422-0.187,1.085-0.508,1.536-0.921L14.025,18.881z"/>
			<circle fill="none" stroke="#000000" stroke-linejoin="round" stroke-miterlimit="10" cx="9.897" cy="15.032" r="1.692"/>
		</g>
		<g>
			<polygon fill="none" stroke="#000000" stroke-linecap="round" stroke-linejoin="round" stroke-miterlimit="10" points="
				19.5,23.532 0.5,23.532 0.5,0.532 13.5,0.532 19.5,6.532 			"/>
			<polyline fill="none" stroke="#000000" stroke-linecap="round" stroke-linejoin="round" stroke-miterlimit="10" points="
				13.5,0.532 13.5,6.532 19.5,6.532 			"/>
		</g>
	</g>
</g>

</svg>
