<?xml version="1.0" encoding="utf-8"?>
<!-- Generator: Adobe Illustrator 16.0.3, SVG Export Plug-In . SVG Version: 6.00 Build 0)  -->
<!DOCTYPE svg PUBLIC "-//W3C//DTD SVG 1.1//EN" "http://www.w3.org/Graphics/SVG/1.1/DTD/svg11.dtd">
<svg version="1.1" xmlns="http://www.w3.org/2000/svg" xmlns:xlink="http://www.w3.org/1999/xlink" x="0px" y="0px" width="24px"
	 height="24px" viewBox="0 0 24 24" enable-background="new 0 0 24 24" xml:space="preserve">
<g id="Outline_Icons">
	<g>
		<path fill="none" stroke="#000000" stroke-linejoin="round" stroke-miterlimit="10" d="M10.5,17.5c0-0.828,0.671-1.5,1.5-1.5
			c0.827,0,1.5,0.672,1.5,1.5"/>
		<path fill="none" stroke="#000000" stroke-linecap="round" stroke-linejoin="round" stroke-miterlimit="10" d="M2.5,16.5V5
			c0-0.828,0.671-1.5,1.5-1.5"/>
		<path fill="none" stroke="#000000" stroke-linecap="round" stroke-linejoin="round" stroke-miterlimit="10" d="M21.5,16.5V5
			c0-0.828-0.673-1.5-1.5-1.5"/>
		<path fill="none" stroke="#000000" stroke-linejoin="round" stroke-miterlimit="10" d="M10.5,19.5c0,1.104-0.896,2-2,2h-4
			c-1.104,0-2-0.896-2-2v-3c0-1.104,0.896-2,2-2h4c1.104,0,2,0.896,2,2V19.5z"/>
		<path fill="none" stroke="#000000" stroke-linejoin="round" stroke-miterlimit="10" d="M21.5,19.5c0,1.104-0.896,2-2,2h-4
			c-1.104,0-2-0.896-2-2v-3c0-1.104,0.896-2,2-2h4c1.104,0,2,0.896,2,2V19.5z"/>
	</g>
</g>

</svg>
