<?xml version="1.0" encoding="utf-8"?>
<!-- Generator: Adobe Illustrator 16.0.3, SVG Export Plug-In . SVG Version: 6.00 Build 0)  -->
<!DOCTYPE svg PUBLIC "-//W3C//DTD SVG 1.1//EN" "http://www.w3.org/Graphics/SVG/1.1/DTD/svg11.dtd">
<svg version="1.1" xmlns="http://www.w3.org/2000/svg" xmlns:xlink="http://www.w3.org/1999/xlink" x="0px" y="0px" width="24px"
	 height="24px" viewBox="0 0 24 24" enable-background="new 0 0 24 24" xml:space="preserve">
<g id="Outline_Icons_1_">
	<g id="Outline_Icons">
		<g>
			<g>
				
					<circle fill="none" stroke="#000000" stroke-linecap="round" stroke-linejoin="round" stroke-miterlimit="10" cx="5" cy="13.998" r="2.5"/>
				<path fill="none" stroke="#000000" stroke-linecap="round" stroke-linejoin="round" stroke-miterlimit="10" d="M6.578,20.498H1
					c0-2.208,1.79-4,4-4c1.325,0,2.499,0.645,3.227,1.637"/>
			</g>
			<g>
				
					<circle fill="none" stroke="#000000" stroke-linecap="round" stroke-linejoin="round" stroke-miterlimit="10" cx="19" cy="13.998" r="2.5"/>
				<path fill="none" stroke="#000000" stroke-linecap="round" stroke-linejoin="round" stroke-miterlimit="10" d="M15.771,18.136
					c0.728-0.992,1.902-1.638,3.229-1.638c2.21,0,4,1.792,4,4h-5.578"/>
			</g>
			
				<circle fill="none" stroke="#000000" stroke-linecap="round" stroke-linejoin="round" stroke-miterlimit="10" cx="12" cy="13.124" r="3.611"/>
			<path fill="none" stroke="#000000" stroke-linecap="round" stroke-linejoin="round" stroke-miterlimit="10" d="M6.859,9.008
				C8.048,7.475,9.907,6.486,12,6.486c2.09,0,3.95,0.987,5.139,2.521"/>
			<path fill="none" stroke="#000000" stroke-linecap="round" stroke-linejoin="round" stroke-miterlimit="10" d="M4.986,7.344
				C6.636,5.297,9.163,3.986,12,3.986c2.83,0,5.355,1.307,7.006,3.349"/>
			<path fill="none" stroke="#000000" stroke-linecap="round" stroke-linejoin="round" stroke-miterlimit="10" d="M2.985,5.844
				C5.091,3.188,8.345,1.487,12,1.487c3.658,0,6.916,1.707,9.022,4.368"/>
			<path fill="none" stroke="#000000" stroke-linecap="round" stroke-linejoin="round" stroke-miterlimit="10" d="M17.777,22.514
				H6.223c0-3.191,2.585-5.779,5.777-5.779C15.191,16.734,17.777,19.322,17.777,22.514z"/>
		</g>
	</g>
	<g id="New_icons_1_">
	</g>
</g>

</svg>
