<?xml version="1.0" encoding="utf-8"?>
<!-- Generator: Adobe Illustrator 16.0.3, SVG Export Plug-In . SVG Version: 6.00 Build 0)  -->
<!DOCTYPE svg PUBLIC "-//W3C//DTD SVG 1.1//EN" "http://www.w3.org/Graphics/SVG/1.1/DTD/svg11.dtd">
<svg version="1.1" xmlns="http://www.w3.org/2000/svg" xmlns:xlink="http://www.w3.org/1999/xlink" x="0px" y="0px" width="24px"
	 height="24px" viewBox="0 0 24 24" enable-background="new 0 0 24 24" xml:space="preserve">
<g id="Outline_Icons_1_">
	<g id="Outline_Icons">
		<g>
			<g>
				<path fill="none" stroke="#000000" stroke-linejoin="round" stroke-miterlimit="10" d="M18.5,6.976
					c0,3.604-2.918,6.524-6.518,6.524S5.5,10.462,5.5,6.858c0-3.509,2.753-6.213,6.221-6.353C11.814,0.502,11.908,0.5,12.003,0.5
					C15.603,0.5,18.5,3.372,18.5,6.976z"/>
				<path fill="none" stroke="#000000" stroke-linejoin="round" stroke-miterlimit="10" d="M11.721,0.506
					c-3.392,3.674-3.392,8.467,0,12.989"/>
				<path fill="none" stroke="#000000" stroke-linejoin="round" stroke-miterlimit="10" d="M12.285,0.506
					c3.392,3.674,3.392,8.466,0,12.987"/>
				
					<line fill="none" stroke="#000000" stroke-linejoin="round" stroke-miterlimit="10" x1="6.574" y1="10.5" x2="17.468" y2="10.5"/>
				<line fill="none" stroke="#000000" stroke-linejoin="round" stroke-miterlimit="10" x1="6.453" y1="3.5" x2="17.496" y2="3.5"/>
				<line fill="none" stroke="#000000" stroke-linejoin="round" stroke-miterlimit="10" x1="5.5" y1="7" x2="18.5" y2="7"/>
			</g>
			
				<circle fill="none" stroke="#000000" stroke-linecap="round" stroke-linejoin="round" stroke-miterlimit="10" cx="4.5" cy="17.015" r="2.5"/>
			
				<circle fill="none" stroke="#000000" stroke-linecap="round" stroke-linejoin="round" stroke-miterlimit="10" cx="12" cy="17.015" r="2.5"/>
			
				<circle fill="none" stroke="#000000" stroke-linecap="round" stroke-linejoin="round" stroke-miterlimit="10" cx="19.5" cy="17.015" r="2.5"/>
			<path fill="none" stroke="#000000" stroke-linecap="round" stroke-linejoin="round" stroke-miterlimit="10" d="M19.5,19.507
				c-1.733,0-3.194,1.112-3.75,2.654c-0.556-1.542-2.017-2.648-3.75-2.648s-3.194,1.109-3.75,2.65
				c-0.556-1.541-2.017-2.656-3.75-2.656c-2.21,0-4,1.993-4,3.993h23C23.5,21.5,21.71,19.507,19.5,19.507z"/>
		</g>
	</g>
	<g id="New_icons_1_">
	</g>
</g>

</svg>
