<?xml version="1.0" encoding="utf-8"?>
<!-- Generator: Adobe Illustrator 16.0.3, SVG Export Plug-In . SVG Version: 6.00 Build 0)  -->
<!DOCTYPE svg PUBLIC "-//W3C//DTD SVG 1.1//EN" "http://www.w3.org/Graphics/SVG/1.1/DTD/svg11.dtd">
<svg version="1.1" xmlns="http://www.w3.org/2000/svg" xmlns:xlink="http://www.w3.org/1999/xlink" x="0px" y="0px" width="24px"
	 height="24px" viewBox="0 0 24 24" enable-background="new 0 0 24 24" xml:space="preserve">
<g id="Outline_Icons">
	<g>
		<ellipse fill="none" stroke="#000000" stroke-miterlimit="10" cx="11.5" cy="13" rx="7" ry="8.5"/>
		<path fill="none" stroke="#000000" stroke-linecap="round" stroke-miterlimit="10" d="M18.377,12.001
			c-0.614,3.701-3.46,6.499-6.877,6.499s-6.263-2.798-6.877-6.499"/>
		<path fill="none" stroke="#000000" stroke-linecap="round" stroke-miterlimit="10" d="M6.5,15.707
			c1.369-0.755,3.108-1.207,5-1.207c1.89,0,3.627,0.451,4.996,1.204"/>
		<line fill="none" stroke="#000000" stroke-linecap="round" stroke-miterlimit="10" x1="11.5" y1="4.5" x2="11.5" y2="0.5"/>
	</g>
</g>

</svg>
