<?xml version="1.0" encoding="utf-8"?>
<!-- Generator: Adobe Illustrator 16.0.3, SVG Export Plug-In . SVG Version: 6.00 Build 0)  -->
<!DOCTYPE svg PUBLIC "-//W3C//DTD SVG 1.1//EN" "http://www.w3.org/Graphics/SVG/1.1/DTD/svg11.dtd">
<svg version="1.1" xmlns="http://www.w3.org/2000/svg" xmlns:xlink="http://www.w3.org/1999/xlink" x="0px" y="0px" width="24px"
	 height="24px" viewBox="0 0 24 24" enable-background="new 0 0 24 24" xml:space="preserve">
<g id="Outline_Icons">
	<g>
		<path fill="none" stroke="#000000" stroke-linecap="round" stroke-linejoin="round" stroke-miterlimit="10" d="M20.5,11.488
			c0-5.522-4.477-9.939-10-9.939c-5.523,0-9.999,4.484-9.999,10.007c0,5.523,4.476,10.004,10,10.004c1.932,0,3.5-1.565,3.5-3.498
			s-1.568-3.499-3.5-3.499c-0.829,0-1.5-0.702-1.5-1.53s0.671-1.529,1.5-1.529H23.5"/>
		
			<circle fill="none" stroke="#000000" stroke-linecap="round" stroke-linejoin="round" stroke-miterlimit="10" cx="10.501" cy="18.063" r="1.5"/>
	</g>
</g>

</svg>
