<?xml version="1.0" encoding="utf-8"?>
<!-- Generator: Adobe Illustrator 16.0.3, SVG Export Plug-In . SVG Version: 6.00 Build 0)  -->
<!DOCTYPE svg PUBLIC "-//W3C//DTD SVG 1.1//EN" "http://www.w3.org/Graphics/SVG/1.1/DTD/svg11.dtd">
<svg version="1.1" xmlns="http://www.w3.org/2000/svg" xmlns:xlink="http://www.w3.org/1999/xlink" x="0px" y="0px" width="24px"
	 height="24px" viewBox="0 0 24 24" enable-background="new 0 0 24 24" xml:space="preserve">
<g id="Outline_Icons_1_">
	<g id="Outline_Icons">
		<g>
			<rect x="0.5" y="14.501" fill="none" stroke="#000000" stroke-linejoin="round" stroke-miterlimit="10" width="9" height="9"/>
			<rect x="14.5" y="14.501" fill="none" stroke="#000000" stroke-linejoin="round" stroke-miterlimit="10" width="9" height="9"/>
			<rect x="8.5" y="0.501" fill="none" stroke="#000000" stroke-linejoin="round" stroke-miterlimit="10" width="9" height="9"/>
			<polyline fill="none" stroke="#000000" stroke-linecap="round" stroke-linejoin="round" stroke-miterlimit="10" points="
				20.5,14.501 20.5,11.501 3.5,11.501 3.5,14.501 			"/>
			
				<line fill="none" stroke="#000000" stroke-linecap="round" stroke-linejoin="round" stroke-miterlimit="10" x1="13.5" y1="9.501" x2="13.5" y2="11.501"/>
			
				<line fill="none" stroke="#000000" stroke-linecap="round" stroke-linejoin="round" stroke-miterlimit="10" x1="10.5" y1="2.501" x2="15.5" y2="2.501"/>
			
				<line fill="none" stroke="#000000" stroke-linecap="round" stroke-linejoin="round" stroke-miterlimit="10" x1="16.5" y1="16.501" x2="21.5" y2="16.501"/>
			
				<line fill="none" stroke="#000000" stroke-linecap="round" stroke-linejoin="round" stroke-miterlimit="10" x1="2.5" y1="16.501" x2="7.5" y2="16.501"/>
		</g>
	</g>
	<g id="New_icons_1_">
	</g>
</g>

</svg>
