<?xml version="1.0" encoding="utf-8"?>
<!-- Generator: Adobe Illustrator 16.0.3, SVG Export Plug-In . SVG Version: 6.00 Build 0)  -->
<!DOCTYPE svg PUBLIC "-//W3C//DTD SVG 1.1//EN" "http://www.w3.org/Graphics/SVG/1.1/DTD/svg11.dtd">
<svg version="1.1" xmlns="http://www.w3.org/2000/svg" xmlns:xlink="http://www.w3.org/1999/xlink" x="0px" y="0px" width="24px"
	 height="24px" viewBox="0 0 24 24" enable-background="new 0 0 24 24" xml:space="preserve">
<g id="Outline_Icons">
	<g>
		<path fill="none" stroke="#000000" stroke-linecap="round" stroke-linejoin="round" stroke-miterlimit="10" d="M13.723,7.5
			c-2.684,1.625-2.851,4.91-0.89,6.667c0.679-0.61,1.193-1.72,1.334-2.667c2.219,1.035,3.556,3.399,3.556,5.777
			c0,3.437-2.787,6.223-6.223,6.223c-3.438,0-6.223-2.786-6.223-6.223C5.277,12.474,9.052,8.281,13.723,7.5z"/>
		<polyline fill="none" stroke="#000000" stroke-linecap="round" stroke-linejoin="round" stroke-miterlimit="10" points="0.5,11 
			12,0.5 23.5,11 		"/>
	</g>
</g>

</svg>
