<?xml version="1.0" encoding="utf-8"?>
<!-- Generator: Adobe Illustrator 16.0.3, SVG Export Plug-In . SVG Version: 6.00 Build 0)  -->
<!DOCTYPE svg PUBLIC "-//W3C//DTD SVG 1.1//EN" "http://www.w3.org/Graphics/SVG/1.1/DTD/svg11.dtd">
<svg version="1.1" xmlns="http://www.w3.org/2000/svg" xmlns:xlink="http://www.w3.org/1999/xlink" x="0px" y="0px" width="24px"
	 height="24px" viewBox="0 0 24 24" enable-background="new 0 0 24 24" xml:space="preserve">
<g id="Outline_Icons_1_">
	<g id="Outline_Icons">
		<g>
			<path fill="none" stroke="#000000" stroke-linejoin="round" stroke-miterlimit="10" d="M8.817,0.5
				c2.687,3.544,2.826,9.407,0,12.529c-0.75-0.881-1.262-1.853-1.5-3.029c-5.897,4.225-2.789,13.5,4.5,13.5
				C22.778,23.5,20.733,5.186,8.817,0.5z"/>
			<path fill="none" stroke="#000000" stroke-linejoin="round" stroke-miterlimit="10" d="M12.317,14.5
				c0.99,1.763-1.512,4.294-3,3.944c0.209,1.168,1.225,2.056,2.454,2.056c1.382,0,2.458-1.12,2.5-2.5
				C14.317,16.5,13.817,14.5,12.317,14.5z"/>
		</g>
	</g>
	<g id="New_icons_1_">
	</g>
</g>

</svg>
