<?xml version="1.0" encoding="utf-8"?>
<!-- Generator: Adobe Illustrator 19.2.1, SVG Export Plug-In . SVG Version: 6.00 Build 0)  -->
<svg version="1.1" id="Layer_1" xmlns="http://www.w3.org/2000/svg" xmlns:xlink="http://www.w3.org/1999/xlink" x="0px" y="0px"
	 width="24px" height="24px" viewBox="0 0 24 24" style="enable-background:new 0 0 24 24;" xml:space="preserve">
<style type="text/css">
	.st0{fill:none;}
	.st1{fill:none;stroke:#000000;stroke-linecap:round;stroke-linejoin:round;stroke-miterlimit:10;}
	.st2{fill:none;stroke:#000000;stroke-linejoin:round;stroke-miterlimit:10;}
</style>
<g>
	<g>
		<g>
			<polyline class="st1" points="3.5,13.5 3.5,23.5 20.5,23.5 20.5,14 			"/>
			<polyline class="st1" points="0.5,13 12,1.5 23.5,13 			"/>
			<polyline class="st1" points="16,2.5 19.5,2.5 19.5,6 			"/>
		</g>
	</g>
	<path class="st2" d="M17,14.1c0,2.6-4.2,5.7-4.7,6.1c-0.1,0.1-0.2,0.1-0.3,0.1c-0.1,0-0.2,0-0.3-0.1C11.2,19.9,7,16.7,7,14.1
		c0-1.9,1.4-3,2.7-3c0.8,0,1.7,0.4,2.3,1.4c0.6-1,1.5-1.4,2.3-1.4C15.6,11.1,17,12.2,17,14.1z"/>
</g>
</svg>
