<?xml version="1.0" encoding="utf-8"?>
<!-- Generator: Adobe Illustrator 16.0.3, SVG Export Plug-In . SVG Version: 6.00 Build 0)  -->
<!DOCTYPE svg PUBLIC "-//W3C//DTD SVG 1.1//EN" "http://www.w3.org/Graphics/SVG/1.1/DTD/svg11.dtd">
<svg version="1.1" xmlns="http://www.w3.org/2000/svg" xmlns:xlink="http://www.w3.org/1999/xlink" x="0px" y="0px" width="24px"
	 height="24px" viewBox="0 0 24 24" enable-background="new 0 0 24 24" xml:space="preserve">
<g id="Outline_Icons">
	<g>
		<path fill="none" stroke="#000000" stroke-linejoin="round" stroke-miterlimit="10" d="M3.5,4.003v12.5c0,1.104,0.896,2,2,2h13
			c1.104,0,2-0.896,2-2c0-2.209-1.791-4-4-4h-1c-2.209,0-4-1.791-4-4v-7.5L3.5,4.003z"/>
		<path fill="none" stroke="#000000" stroke-linejoin="round" stroke-miterlimit="10" d="M6.5,18.503v2H3
			c-0.828,0-1.5,0.672-1.5,1.5s0.672,1.5,1.5,1.5h18c0.828,0,1.5-0.672,1.5-1.5s-0.672-1.5-1.5-1.5h-3.5v-2"/>
		<polyline fill="none" stroke="#000000" stroke-linejoin="round" stroke-miterlimit="10" points="8.5,18.503 8.5,20.503 
			15.5,20.503 15.5,18.503 		"/>
		<path fill="none" stroke="#000000" stroke-linejoin="round" stroke-miterlimit="10" d="M11.5,5.503h-3v6c0,2.209,1.791,4,4,4
			h7.858c-0.445-1.722-1.996-3-3.858-3h-1c-2.209,0-4-1.791-4-4V5.503z"/>
		<line fill="none" stroke="#000000" stroke-linejoin="round" stroke-miterlimit="10" x1="8.5" y1="8.503" x2="11.5" y2="8.503"/>
		
			<line fill="none" stroke="#000000" stroke-linejoin="round" stroke-miterlimit="10" x1="8.5" y1="11.503" x2="12.858" y2="11.503"/>
	</g>
</g>

</svg>
