<?xml version="1.0" encoding="utf-8"?>
<!-- Generator: Adobe Illustrator 16.0.3, SVG Export Plug-In . SVG Version: 6.00 Build 0)  -->
<!DOCTYPE svg PUBLIC "-//W3C//DTD SVG 1.1//EN" "http://www.w3.org/Graphics/SVG/1.1/DTD/svg11.dtd">
<svg version="1.1" xmlns="http://www.w3.org/2000/svg" xmlns:xlink="http://www.w3.org/1999/xlink" x="0px" y="0px" width="24px"
	 height="24px" viewBox="0 0 24 24" enable-background="new 0 0 24 24" xml:space="preserve">
<g id="Outline_Icons_1_">
	<g id="Outline_Icons">
		<g>
			<path fill="none" stroke="#000000" stroke-linejoin="round" stroke-miterlimit="10" d="M4.5,5.5v14h4v-0.75
				c0-0.963,0.787-1.75,1.75-1.75c0.962,0,1.75,0.787,1.75,1.75v0.75h4v-0.75c0-0.963,0.787-1.75,1.75-1.75
				c0.962,0,1.75,0.787,1.75,1.75v0.75h4v-14H4.5z"/>
			<polyline fill="none" stroke="#000000" stroke-linecap="round" stroke-linejoin="round" stroke-miterlimit="10" points="
				19.5,3.5 19.5,1.5 0.5,1.5 0.5,15.5 2.5,15.5 			"/>
			<circle fill="none" stroke="#000000" stroke-linejoin="round" stroke-miterlimit="10" cx="10.5" cy="9.929" r="1.5"/>
			<path fill="none" stroke="#000000" stroke-linejoin="round" stroke-miterlimit="10" d="M10.5,11.422c-2.143,0-3,1.813-3,3.099h6
				C13.5,13.235,12.643,11.422,10.5,11.422z"/>
			<line fill="none" stroke="#000000" stroke-linejoin="round" stroke-miterlimit="10" x1="16" y1="13.5" x2="21" y2="13.5"/>
			<line fill="none" stroke="#000000" stroke-linejoin="round" stroke-miterlimit="10" x1="16" y1="11.5" x2="21" y2="11.5"/>
			<line fill="none" stroke="#000000" stroke-linejoin="round" stroke-miterlimit="10" x1="16" y1="9.5" x2="18.5" y2="9.5"/>
		</g>
	</g>
	<g id="New_icons_1_">
	</g>
</g>

</svg>
