<?xml version="1.0" encoding="utf-8"?>
<!-- Generator: Adobe Illustrator 16.0.3, SVG Export Plug-In . SVG Version: 6.00 Build 0)  -->
<!DOCTYPE svg PUBLIC "-//W3C//DTD SVG 1.1//EN" "http://www.w3.org/Graphics/SVG/1.1/DTD/svg11.dtd">
<svg version="1.1" xmlns="http://www.w3.org/2000/svg" xmlns:xlink="http://www.w3.org/1999/xlink" x="0px" y="0px" width="24px"
	 height="24px" viewBox="0 0 24 24" enable-background="new 0 0 24 24" xml:space="preserve">
<g id="Outline_Icons">
	<g>
		<path fill="none" stroke="#000000" stroke-linecap="round" stroke-linejoin="round" stroke-miterlimit="10" d="M19.5,7.5v2
			c0,3.866-3.134,7-7,7s-7-3.134-7-7v-2"/>
		
			<line fill="none" stroke="#000000" stroke-linecap="round" stroke-linejoin="round" stroke-miterlimit="10" x1="12.5" y1="7.5" x2="12.5" y2="23.5"/>
		
			<line fill="none" stroke="#000000" stroke-linecap="round" stroke-linejoin="round" stroke-miterlimit="10" x1="8" y1="23.5" x2="17" y2="23.5"/>
		<path fill="none" stroke="#000000" stroke-linecap="round" stroke-linejoin="round" stroke-miterlimit="10" d="M7.688,5.312
			C7.688,6.52,6.708,7.5,5.5,7.5S3.312,6.52,3.312,5.312S5.5,0.5,5.5,0.5S7.688,4.104,7.688,5.312z"/>
		<path fill="none" stroke="#000000" stroke-linecap="round" stroke-linejoin="round" stroke-miterlimit="10" d="M14.688,5.312
			c0,1.208-0.979,2.188-2.188,2.188s-2.188-0.98-2.188-2.188S12.5,0.5,12.5,0.5S14.688,4.104,14.688,5.312z"/>
		<path fill="none" stroke="#000000" stroke-linecap="round" stroke-linejoin="round" stroke-miterlimit="10" d="M21.688,5.312
			c0,1.208-0.979,2.188-2.188,2.188s-2.188-0.98-2.188-2.188S19.5,0.5,19.5,0.5S21.688,4.104,21.688,5.312z"/>
	</g>
</g>

</svg>
