<?xml version="1.0" encoding="utf-8"?>
<!-- Generator: Adobe Illustrator 16.0.3, SVG Export Plug-In . SVG Version: 6.00 Build 0)  -->
<!DOCTYPE svg PUBLIC "-//W3C//DTD SVG 1.1//EN" "http://www.w3.org/Graphics/SVG/1.1/DTD/svg11.dtd">
<svg version="1.1" xmlns="http://www.w3.org/2000/svg" xmlns:xlink="http://www.w3.org/1999/xlink" x="0px" y="0px" width="24px"
	 height="24px" viewBox="0 0 24 24" enable-background="new 0 0 24 24" xml:space="preserve">
<g id="Outline_Icons_1_">
	<g id="Outline_Icons">
		<g>
			<path fill="none" stroke="#000000" stroke-linecap="round" stroke-linejoin="round" stroke-miterlimit="10" d="M13,14.501
				c0,0,2,3,5,3s5.5-2.464,5.5-5.5c0-3.037-2.5-5.5-5.5-5.5c-5,0-7,11-12,11c-3.038,0-5.5-2.464-5.5-5.5c0-3.037,2.5-5.5,5.5-5.5
				s4.5,3.5,4.5,3.5"/>
		</g>
	</g>
	<g id="New_icons_1_">
	</g>
</g>

</svg>
