<?xml version="1.0" encoding="utf-8"?>
<!-- Generator: Adobe Illustrator 16.0.3, SVG Export Plug-In . SVG Version: 6.00 Build 0)  -->
<!DOCTYPE svg PUBLIC "-//W3C//DTD SVG 1.1//EN" "http://www.w3.org/Graphics/SVG/1.1/DTD/svg11.dtd">
<svg version="1.1" xmlns="http://www.w3.org/2000/svg" xmlns:xlink="http://www.w3.org/1999/xlink" x="0px" y="0px" width="24px"
	 height="24px" viewBox="0 0 24 24" enable-background="new 0 0 24 24" xml:space="preserve">
<g id="Outline_Icons_1_">
	<g id="Outline_Icons">
		<g>
			<path fill="none" stroke="#000000" stroke-linecap="round" stroke-linejoin="round" stroke-miterlimit="10" d="M18.956,13.662
				c0.555,0.556,0.555,1.455,0,2.01l-3.517,3.517c-0.555,0.556-1.454,0.555-2.01,0l-8.54-8.54c-0.556-0.556-0.556-1.455,0-2.01
				l3.517-3.517c0.555-0.556,1.454-0.556,2.01,0L18.956,13.662z"/>
			<polyline fill="none" stroke="#000000" stroke-linecap="round" stroke-linejoin="round" stroke-miterlimit="10" points="
				20.356,0.816 14.972,2.062 17.675,6.882 			"/>
			<path fill="none" stroke="#000000" stroke-linecap="round" stroke-linejoin="round" stroke-miterlimit="10" d="M14.963,2.092
				c1.596,0.468,3.099,1.33,4.371,2.603c2.562,2.562,3.523,6.12,2.883,9.43"/>
			<polyline fill="none" stroke="#000000" stroke-linecap="round" stroke-linejoin="round" stroke-miterlimit="10" points="
				3.5,23.5 8.884,22.255 6.182,17.435 			"/>
			<path fill="none" stroke="#000000" stroke-linecap="round" stroke-linejoin="round" stroke-miterlimit="10" d="M8.894,22.226
				c-1.597-0.468-3.1-1.331-4.371-2.603c-2.563-2.563-3.524-6.121-2.884-9.431"/>
		</g>
	</g>
	<g id="New_icons_1_">
	</g>
</g>

</svg>
