<?xml version="1.0" encoding="utf-8"?>
<!-- Generator: Adobe Illustrator 16.0.3, SVG Export Plug-In . SVG Version: 6.00 Build 0)  -->
<!DOCTYPE svg PUBLIC "-//W3C//DTD SVG 1.1//EN" "http://www.w3.org/Graphics/SVG/1.1/DTD/svg11.dtd">
<svg version="1.1" xmlns="http://www.w3.org/2000/svg" xmlns:xlink="http://www.w3.org/1999/xlink" x="0px" y="0px" width="24px"
	 height="24px" viewBox="0 0 24 24" enable-background="new 0 0 24 24" xml:space="preserve">
<g id="Outline_Icons">
	<g>
		<polygon fill="none" stroke="#000000" stroke-linejoin="round" stroke-miterlimit="10" points="17.5,12 13.5,13 14,8.5 10,8.5 
			10.5,13 6.5,12 6.5,16.5 10.5,15.5 10,23.5 14,23.5 13.5,15.5 17.5,16.5 		"/>
		<path fill="none" stroke="#000000" stroke-linejoin="round" stroke-miterlimit="10" d="M13,7c0-0.552-0.447-1-1-1s-1,0.448-1,1
			v1.5h2V7z"/>
		<g>
			<g>
				<path fill="none" stroke="#000000" stroke-linecap="round" stroke-linejoin="round" d="M12.973,6.955
					c0.335-0.03,0.665-0.075,0.991-0.135"/>
				<path fill="none" stroke="#000000" stroke-linecap="round" stroke-linejoin="round" stroke-dasharray="1.9249,1.9249" d="
					M15.817,6.308c2.134-0.798,3.951-2.243,5.22-4.093"/>
				<path fill="none" stroke="#000000" stroke-linecap="round" stroke-linejoin="round" d="M21.55,1.391
					C21.713,1.102,21.863,0.805,22,0.5"/>
			</g>
		</g>
		<g>
			<g>
				<path fill="none" stroke="#000000" stroke-linecap="round" stroke-linejoin="round" d="M1.945,0.5
					c0.137,0.305,0.287,0.602,0.449,0.891"/>
				<path fill="none" stroke="#000000" stroke-linecap="round" stroke-linejoin="round" stroke-dasharray="1.9249,1.9249" d="
					M3.482,2.979c1.416,1.726,3.345,3.013,5.557,3.625"/>
				<path fill="none" stroke="#000000" stroke-linecap="round" stroke-linejoin="round" d="M9.981,6.82
					c0.325,0.06,0.656,0.104,0.991,0.135"/>
			</g>
		</g>
	</g>
</g>

</svg>
