<?xml version="1.0" encoding="utf-8"?>
<!-- Generator: Adobe Illustrator 16.0.3, SVG Export Plug-In . SVG Version: 6.00 Build 0)  -->
<!DOCTYPE svg PUBLIC "-//W3C//DTD SVG 1.1//EN" "http://www.w3.org/Graphics/SVG/1.1/DTD/svg11.dtd">
<svg version="1.1" xmlns="http://www.w3.org/2000/svg" xmlns:xlink="http://www.w3.org/1999/xlink" x="0px" y="0px" width="24px"
	 height="24px" viewBox="0 0 24 24" enable-background="new 0 0 24 24" xml:space="preserve">
<g id="Outline_Icons_1_">
	<g id="Outline_Icons">
		<g>
			<path fill="none" stroke="#000000" stroke-linejoin="round" stroke-miterlimit="10" d="M9.5,13.196V16l-5.009,1.789
				C3.297,18.216,2.5,19.347,2.5,20.614V22.5h19v-1.886c0-1.267-0.797-2.398-1.991-2.825L14.5,16v-2.804"/>
			<ellipse fill="none" stroke="#000000" stroke-linejoin="round" stroke-miterlimit="10" cx="12" cy="8" rx="5" ry="6"/>
			<path fill="none" stroke="#000000" stroke-linejoin="round" stroke-miterlimit="10" d="M16.953,7.453
				C16.785,7.474,16.669,7.467,16.5,7.5c-1.703,0.328-2.797-0.289-3.734-1.93C12.203,6.648,10.444,7.5,9,7.5
				c-0.711,0-1.323-0.146-1.936-0.466"/>
		</g>
	</g>
	<g id="New_icons_1_">
	</g>
</g>

</svg>
