<?xml version="1.0" encoding="utf-8"?>
<!-- Generator: Adobe Illustrator 16.0.3, SVG Export Plug-In . SVG Version: 6.00 Build 0)  -->
<!DOCTYPE svg PUBLIC "-//W3C//DTD SVG 1.1//EN" "http://www.w3.org/Graphics/SVG/1.1/DTD/svg11.dtd">
<svg version="1.1" xmlns="http://www.w3.org/2000/svg" xmlns:xlink="http://www.w3.org/1999/xlink" x="0px" y="0px" width="24px"
	 height="24px" viewBox="0 0 24 24" enable-background="new 0 0 24 24" xml:space="preserve">
<g id="Outline_Icons_1_">
	<g id="Outline_Icons">
		<g>
			<g>
				<g>
					<path fill="none" stroke="#000000" stroke-linecap="round" stroke-linejoin="round" stroke-miterlimit="10" d="M7.492,10.013
						c0.78-0.78,0.78-2.047,0-2.828L5.37,5.063c-0.781-0.781-2.047-0.781-2.828,0L1.378,6.228C0.369,7.236,0.212,8.811,1,10.002
						c3.381,5.11,7.89,9.619,13,13c1.188,0.785,2.767,0.629,3.774-0.379l1.164-1.164c0.781-0.78,0.781-2.047,0-2.828l-2.121-2.121
						c-0.781-0.781-2.048-0.781-2.829,0l-0.707,0.707c-2.327-1.906-4.59-4.17-6.497-6.497L7.492,10.013z"/>
				</g>
			</g>
			<polyline fill="none" stroke="#000000" stroke-linecap="round" stroke-linejoin="round" stroke-miterlimit="10" points="
				20.5,9.5 20.5,3.771 17.364,7.588 21.5,7.588 			"/>
			<path fill="none" stroke="#000000" stroke-linecap="round" stroke-linejoin="round" stroke-miterlimit="10" d="M12.402,5.141
				c0.032-0.762,0.661-1.369,1.434-1.369c0.792,0,1.435,0.639,1.435,1.43c0,0.408-0.164,0.676-0.276,0.84L12.384,9.5h2.87"/>
		</g>
	</g>
	<g id="New_icons_1_">
	</g>
</g>

</svg>
