<?xml version="1.0" encoding="utf-8"?>
<!-- Generator: Adobe Illustrator 16.0.3, SVG Export Plug-In . SVG Version: 6.00 Build 0)  -->
<!DOCTYPE svg PUBLIC "-//W3C//DTD SVG 1.1//EN" "http://www.w3.org/Graphics/SVG/1.1/DTD/svg11.dtd">
<svg version="1.1" xmlns="http://www.w3.org/2000/svg" xmlns:xlink="http://www.w3.org/1999/xlink" x="0px" y="0px" width="24px"
	 height="24px" viewBox="0 0 24 24" enable-background="new 0 0 24 24" xml:space="preserve">
<g id="Outline_Icons">
	<g>
		<polyline fill="none" stroke="#000000" stroke-linecap="round" stroke-linejoin="round" stroke-miterlimit="10" points="0.5,9.5 
			4.5,9.5 6.5,6.499 8.5,9.499 10.5,4.999 13.5,14.499 16,2.499 18,9.5 23.5,9.5 		"/>
		<path fill="none" stroke="#000000" stroke-linecap="round" stroke-linejoin="round" stroke-miterlimit="10" d="M23.5,21.5
			c0,1.1-0.9,2-2,2h-19c-1.101,0-2-0.9-2-2v-19c0-1.101,0.899-2,2-2h19c1.1,0,2,0.899,2,2V21.5z"/>
		<polyline fill="none" stroke="#000000" stroke-linecap="round" stroke-linejoin="round" stroke-miterlimit="10" points="0.5,18.5 
			3,18.5 4,17.499 6,19.5 7,18.5 10,18.5 11,17.499 13,19.5 14,18.5 17,18.5 18,17.499 20,19.5 21,18.5 23.5,18.5 		"/>
	</g>
</g>

</svg>
