<?xml version="1.0" encoding="utf-8"?>
<!-- Generator: Adobe Illustrator 16.0.3, SVG Export Plug-In . SVG Version: 6.00 Build 0)  -->
<!DOCTYPE svg PUBLIC "-//W3C//DTD SVG 1.1//EN" "http://www.w3.org/Graphics/SVG/1.1/DTD/svg11.dtd">
<svg version="1.1" xmlns="http://www.w3.org/2000/svg" xmlns:xlink="http://www.w3.org/1999/xlink" x="0px" y="0px" width="24px"
	 height="24px" viewBox="0 0 24 24" enable-background="new 0 0 24 24" xml:space="preserve">
<g id="Outline_Icons">
	<g>
		
			<line fill="none" stroke="#000000" stroke-linecap="round" stroke-linejoin="round" stroke-miterlimit="10" x1="0.484" y1="23.5" x2="22.977" y2="1.009"/>
		<path fill="none" stroke="#000000" stroke-linecap="round" stroke-linejoin="round" stroke-miterlimit="10" d="M23,1.018
			c0,0-2.031,9.065-6.717,13.752c-4.687,4.686-8.513,4.958-10.253,3.217c-1.742-1.741-1.724-6.284,2.962-10.969
			C9.993,6.016,11,5.212,12.5,4.5v3c0,0,1.992-1.982,1.992-3.982C18.711,1.666,23,1.018,23,1.018z"/>
		
			<line fill="none" stroke="#000000" stroke-linecap="round" stroke-linejoin="round" stroke-miterlimit="10" x1="15.558" y1="15.495" x2="13.437" y2="13.374"/>
		
			<line fill="none" stroke="#000000" stroke-linecap="round" stroke-linejoin="round" stroke-miterlimit="10" x1="16.972" y1="14.08" x2="14.851" y2="11.959"/>
	</g>
</g>

</svg>
