<?xml version="1.0" encoding="utf-8"?>
<!-- Generator: Adobe Illustrator 16.0.3, SVG Export Plug-In . SVG Version: 6.00 Build 0)  -->
<!DOCTYPE svg PUBLIC "-//W3C//DTD SVG 1.1//EN" "http://www.w3.org/Graphics/SVG/1.1/DTD/svg11.dtd">
<svg version="1.1" xmlns="http://www.w3.org/2000/svg" xmlns:xlink="http://www.w3.org/1999/xlink" x="0px" y="0px" width="24px"
	 height="24px" viewBox="0 0 24 24" enable-background="new 0 0 24 24" xml:space="preserve">
<g id="Outline_Icons">
	<g>
		
			<rect x="3.5" y="3.5" fill="none" stroke="#000000" stroke-linecap="round" stroke-linejoin="round" stroke-miterlimit="10" width="16" height="20"/>
		
			<rect x="7.5" y="0.5" fill="none" stroke="#000000" stroke-linecap="round" stroke-linejoin="round" stroke-miterlimit="10" width="8" height="3"/>
		
			<line fill="none" stroke="#000000" stroke-linecap="round" stroke-linejoin="round" stroke-miterlimit="10" x1="1" y1="3.5" x2="23" y2="3.5"/>
		<path fill="none" stroke="#000000" stroke-linecap="round" stroke-linejoin="round" stroke-miterlimit="10" d="M13.923,13.5
			l3.633-0.002c-0.002-2.369-1.375-4.398-3.359-5.394l-1.619,3.237C13.373,11.74,13.921,12.553,13.923,13.5z"/>
		<path fill="none" stroke="#000000" stroke-linecap="round" stroke-linejoin="round" stroke-miterlimit="10" d="M12.949,15.389
			c-0.854,0.644-2.008,0.67-2.9,0l-2.174,2.895c2.181,1.644,5.066,1.646,7.25,0L12.949,15.389z"/>
		<path fill="none" stroke="#000000" stroke-linecap="round" stroke-linejoin="round" stroke-miterlimit="10" d="M10.419,11.342
			L8.802,8.104C6.818,9.1,5.443,11.129,5.443,13.498L9.076,13.5C9.078,12.553,9.626,11.74,10.419,11.342z"/>
		<path fill="none" stroke="#000000" stroke-linecap="round" stroke-linejoin="round" stroke-miterlimit="10" d="M12,13.516
			c0,0.275-0.225,0.5-0.5,0.5l0,0c-0.277,0-0.5-0.225-0.5-0.5l0,0c0-0.277,0.223-0.5,0.5-0.5l0,0C11.775,13.016,12,13.238,12,13.516
			L12,13.516z"/>
	</g>
</g>

</svg>
