<?xml version="1.0" encoding="utf-8"?>
<!-- Generator: Adobe Illustrator 16.0.3, SVG Export Plug-In . SVG Version: 6.00 Build 0)  -->
<!DOCTYPE svg PUBLIC "-//W3C//DTD SVG 1.1//EN" "http://www.w3.org/Graphics/SVG/1.1/DTD/svg11.dtd">
<svg version="1.1" xmlns="http://www.w3.org/2000/svg" xmlns:xlink="http://www.w3.org/1999/xlink" x="0px" y="0px" width="24px"
	 height="24px" viewBox="0 0 24 24" enable-background="new 0 0 24 24" xml:space="preserve">
<g id="Outline_Icons">
	<g>
		<polyline fill="none" stroke="#000000" stroke-linecap="round" stroke-linejoin="round" stroke-miterlimit="10" points="
			9.5,23.485 12,21 9.5,21 12,18.493 		"/>
		
			<line fill="none" stroke="#000000" stroke-linecap="round" stroke-linejoin="round" stroke-miterlimit="10" x1="13" y1="23.471" x2="18" y2="18.471"/>
		
			<line fill="none" stroke="#000000" stroke-linecap="round" stroke-linejoin="round" stroke-miterlimit="10" x1="3" y1="23.471" x2="8" y2="18.471"/>
		<path fill="none" stroke="#000000" stroke-linecap="round" stroke-linejoin="round" stroke-miterlimit="10" d="M20.752,8.194
			c0.916-2.109-0.8-4.457-3.123-4.169C16.835,1.965,14.841,0.5,12.5,0.5c-2.877,0-5.234,2.21-5.477,5.024
			C4.486,5.764,2.5,7.899,2.5,10.5c0,2.762,2.238,5,5,5h11c2.21,0,4-1.79,4-4C22.5,10.127,21.807,8.915,20.752,8.194z"/>
	</g>
</g>

</svg>
