<?xml version="1.0" encoding="utf-8"?>
<!-- Generator: Adobe Illustrator 16.0.3, SVG Export Plug-In . SVG Version: 6.00 Build 0)  -->
<!DOCTYPE svg PUBLIC "-//W3C//DTD SVG 1.1//EN" "http://www.w3.org/Graphics/SVG/1.1/DTD/svg11.dtd">
<svg version="1.1" xmlns="http://www.w3.org/2000/svg" xmlns:xlink="http://www.w3.org/1999/xlink" x="0px" y="0px" width="24px"
	 height="24px" viewBox="0 0 24 24" enable-background="new 0 0 24 24" xml:space="preserve">
<g id="Outline_Icons_1_">
	<g id="Outline_Icons">
		<g>
			<polygon fill="none" stroke="#000000" stroke-linejoin="round" stroke-miterlimit="10" points="12.007,7.002 13.5,10.5 17,10.5 
				14,13 15.5,17 12.007,14.352 8.5,17 10,13 7,10.5 10.5,10.5 			"/>
			<path fill="none" stroke="#000000" stroke-linejoin="round" stroke-miterlimit="10" d="M21.284,13.847L23.5,12l-2.216-1.847
				l1.341-2.554l-2.754-0.858l0.261-2.872L17.259,4.13L16.4,1.375l-2.554,1.341L12,0.5l-1.847,2.216L7.6,1.375L6.741,4.13
				L3.868,3.869l0.261,2.872L1.375,7.599l1.341,2.554L0.5,12l2.216,1.847l-1.341,2.554l2.754,0.858l-0.261,2.874l2.873-0.262
				L7.6,22.625l2.554-1.341L12,23.5l1.847-2.215l2.554,1.341l0.858-2.755l2.873,0.262l-0.261-2.874l2.754-0.858L21.284,13.847z"/>
		</g>
	</g>
	<g id="New_icons_1_">
	</g>
</g>

</svg>
