<?xml version="1.0" encoding="utf-8"?>
<!-- Generator: Adobe Illustrator 16.0.3, SVG Export Plug-In . SVG Version: 6.00 Build 0)  -->
<!DOCTYPE svg PUBLIC "-//W3C//DTD SVG 1.1//EN" "http://www.w3.org/Graphics/SVG/1.1/DTD/svg11.dtd">
<svg version="1.1" xmlns="http://www.w3.org/2000/svg" xmlns:xlink="http://www.w3.org/1999/xlink" x="0px" y="0px" width="24px"
	 height="24px" viewBox="0 0 24 24" enable-background="new 0 0 24 24" xml:space="preserve">
<g id="Outline_Icons_1_">
	<g id="Outline_Icons">
		<g>
			<path fill="none" stroke="#000000" stroke-linecap="round" stroke-linejoin="round" stroke-miterlimit="10" d="M8.5,16.5H2
				c-0.825,0-1.5-0.676-1.5-1.5V2c0-0.825,0.675-1.5,1.5-1.5h20c0.825,0,1.5,0.675,1.5,1.5v13c0,0.824-0.675,1.5-1.5,1.5h-1.5"/>
			<polyline fill="none" stroke="#000000" stroke-linecap="round" stroke-linejoin="round" stroke-miterlimit="10" points="
				8.5,14.5 2.5,14.5 2.5,2.5 21.5,2.5 21.5,14.5 20.5,14.5 			"/>
			<rect x="11.5" y="12.5" fill="none" stroke="#000000" stroke-linejoin="round" stroke-miterlimit="10" width="6" height="10"/>
			<g>
				<g>
					<g>
						<path d="M13.5,14c-0.276,0-0.5,0.225-0.5,0.5s0.224,0.5,0.5,0.5s0.5-0.225,0.5-0.5S13.776,14,13.5,14L13.5,14z"/>
					</g>
				</g>
			</g>
			<g>
				<g>
					<g>
						<path d="M15.5,14c-0.276,0-0.5,0.225-0.5,0.5s0.224,0.5,0.5,0.5s0.5-0.225,0.5-0.5S15.776,14,15.5,14L15.5,14z"/>
					</g>
				</g>
			</g>
			<g>
				<g>
					<g>
						<path d="M13.5,16c-0.276,0-0.5,0.225-0.5,0.5s0.224,0.5,0.5,0.5s0.5-0.225,0.5-0.5S13.776,16,13.5,16L13.5,16z"/>
					</g>
				</g>
			</g>
			<g>
				<g>
					<g>
						<path d="M15.5,16c-0.276,0-0.5,0.225-0.5,0.5s0.224,0.5,0.5,0.5s0.5-0.225,0.5-0.5S15.776,16,15.5,16L15.5,16z"/>
					</g>
				</g>
			</g>
			<g>
				<g>
					<g>
						<path d="M13.5,18c-0.276,0-0.5,0.225-0.5,0.5s0.224,0.5,0.5,0.5s0.5-0.225,0.5-0.5S13.776,18,13.5,18L13.5,18z"/>
					</g>
				</g>
			</g>
			<g>
				<g>
					<g>
						<path d="M15.5,18c-0.276,0-0.5,0.225-0.5,0.5s0.224,0.5,0.5,0.5s0.5-0.225,0.5-0.5S15.776,18,15.5,18L15.5,18z"/>
					</g>
				</g>
			</g>
			<path fill="none" stroke="#000000" stroke-linecap="round" stroke-linejoin="round" stroke-miterlimit="10" d="M17.893,6.963
				c-1.997-1.227-4.51-1.274-6.548-0.141"/>
			<path fill="none" stroke="#000000" stroke-linecap="round" stroke-linejoin="round" stroke-miterlimit="10" d="M16.85,8.666
				c-1.384-0.849-3.123-0.882-4.534-0.098"/>
			<path fill="none" stroke="#000000" stroke-linecap="round" stroke-linejoin="round" stroke-miterlimit="10" d="M15.803,10.374
				c-0.769-0.472-1.729-0.484-2.512-0.05"/>
		</g>
	</g>
	<g id="New_icons_1_">
	</g>
</g>

</svg>
