<?xml version="1.0" encoding="utf-8"?>
<!-- Generator: Adobe Illustrator 16.0.3, SVG Export Plug-In . SVG Version: 6.00 Build 0)  -->
<!DOCTYPE svg PUBLIC "-//W3C//DTD SVG 1.1//EN" "http://www.w3.org/Graphics/SVG/1.1/DTD/svg11.dtd">
<svg version="1.1" xmlns="http://www.w3.org/2000/svg" xmlns:xlink="http://www.w3.org/1999/xlink" x="0px" y="0px" width="24px"
	 height="24px" viewBox="0 0 24 24" enable-background="new 0 0 24 24" xml:space="preserve">
<g id="Outline_Icons">
	<g>
		<g>
			<path fill="none" stroke="#000000" stroke-linejoin="round" stroke-miterlimit="10" d="M22.927,2.049l-2.646,9.237
				c-1.026,0.834-2.969,0.625-4.198,0.329L20.79,1.243c0.225-0.589,0.882-0.886,1.472-0.666C22.852,0.802,23.147,1.46,22.927,2.049z
				"/>
		</g>
		<path fill="none" stroke="#000000" stroke-linejoin="round" stroke-miterlimit="10" d="M20.77,9.235
			c1.087,0.73,1.73,1.594,1.73,2.52c0,2.624-5.17,4.75-10.969,4.75S0.5,14.379,0.5,11.755c0-2.623,5.232-4.75,11.031-4.75
			c2.175,0,4.261,0.299,6.019,0.811"/>
		<path fill="none" stroke="#000000" stroke-linejoin="round" stroke-miterlimit="10" d="M0.5,11.505v2
			c0,5.799,3.5,10.001,11.031,10.001S22.5,19.304,22.5,13.505v-2"/>
		<path fill="none" stroke="#000000" stroke-linecap="round" stroke-linejoin="round" stroke-miterlimit="10" d="M4,12.505
			c0-1.104,0.896-2,2-2s2,0.896,2,2"/>
		<path fill="none" stroke="#000000" stroke-linecap="round" stroke-linejoin="round" stroke-miterlimit="10" d="M12.5,14.255
			c0-0.828,0.672-1.5,1.5-1.5s1.5,0.672,1.5,1.5"/>
		<path fill="none" stroke="#000000" stroke-linecap="round" stroke-linejoin="round" stroke-miterlimit="10" d="M10,10.505
			c0-0.553,0.447-1,1-1s1,0.447,1,1"/>
	</g>
</g>

</svg>
