<?xml version="1.0" encoding="utf-8"?>
<!-- Generator: Adobe Illustrator 16.0.3, SVG Export Plug-In . SVG Version: 6.00 Build 0)  -->
<!DOCTYPE svg PUBLIC "-//W3C//DTD SVG 1.1//EN" "http://www.w3.org/Graphics/SVG/1.1/DTD/svg11.dtd">
<svg version="1.1" xmlns="http://www.w3.org/2000/svg" xmlns:xlink="http://www.w3.org/1999/xlink" x="0px" y="0px" width="24px"
	 height="24px" viewBox="0 0 24 24" enable-background="new 0 0 24 24" xml:space="preserve">
<g id="Outline_Icons">
	<g>
		<ellipse fill="none" stroke="#000000" stroke-miterlimit="10" cx="12.5" cy="12" rx="4.5" ry="11.5"/>
		
			<ellipse transform="matrix(0.5666 0.824 -0.824 0.5666 15.3052 -5.0992)" fill="none" stroke="#000000" stroke-miterlimit="10" cx="12.5" cy="12" rx="4.5" ry="11.5"/>
		
			<ellipse transform="matrix(-0.5666 0.824 -0.824 -0.5666 29.4705 8.4995)" fill="none" stroke="#000000" stroke-miterlimit="10" cx="12.5" cy="12" rx="4.5" ry="11.5"/>
		<circle fill="none" stroke="#000000" stroke-miterlimit="10" cx="12.5" cy="12" r="2"/>
	</g>
</g>

</svg>
