<?xml version="1.0" encoding="utf-8"?>
<!-- Generator: Adobe Illustrator 16.0.3, SVG Export Plug-In . SVG Version: 6.00 Build 0)  -->
<!DOCTYPE svg PUBLIC "-//W3C//DTD SVG 1.1//EN" "http://www.w3.org/Graphics/SVG/1.1/DTD/svg11.dtd">
<svg version="1.1" xmlns="http://www.w3.org/2000/svg" xmlns:xlink="http://www.w3.org/1999/xlink" x="0px" y="0px" width="24px"
	 height="24px" viewBox="0 0 24 24" enable-background="new 0 0 24 24" xml:space="preserve">
<g id="Outline_Icons">
	<g>
		<path fill="none" stroke="#000000" stroke-linecap="round" stroke-miterlimit="10" d="M19.854,7.661
			c1.188,0.124,2.387-0.022,3.505-0.422"/>
		<path fill="none" stroke="#000000" stroke-linecap="round" stroke-miterlimit="10" d="M7.11,23.5
			c0.67-1.857,0.64-3.94-0.171-5.832c-1.281-2.99-0.532-6.539,1.768-8.839c1.762-1.762,4.258-2.614,6.673-2.34"/>
		<path fill="none" stroke="#000000" stroke-linecap="round" stroke-miterlimit="10" d="M9.38,18.266
			c2.329,0.183,4.703-0.671,6.398-2.365c2.3-2.301,3.049-5.85,1.768-8.84c-0.81-1.889-0.841-3.968-0.174-5.823"/>
		<path fill="none" stroke="#000000" stroke-linecap="round" stroke-miterlimit="10" d="M1.127,17.489
			c1.188-0.425,2.467-0.563,3.728-0.396"/>
		
			<line fill="none" stroke="#000000" stroke-linecap="round" stroke-miterlimit="10" x1="12.949" y1="6.707" x2="17.899" y2="11.657"/>
		<line fill="none" stroke="#000000" stroke-miterlimit="10" x1="17.048" y1="2.32" x2="22.287" y2="7.56"/>
		<line fill="none" stroke="#000000" stroke-miterlimit="10" x1="2.188" y1="17.158" x2="7.448" y2="22.419"/>
		
			<line fill="none" stroke="#000000" stroke-linecap="round" stroke-miterlimit="10" x1="9.934" y1="7.935" x2="16.673" y2="14.673"/>
		<line fill="none" stroke="#000000" stroke-miterlimit="10" x1="6.441" y1="12.927" x2="11.68" y2="18.166"/>
		<line fill="none" stroke="#000000" stroke-miterlimit="10" x1="7.812" y1="10.056" x2="14.552" y2="16.795"/>
	</g>
</g>

</svg>
