<?xml version="1.0" encoding="utf-8"?>
<!-- Generator: Adobe Illustrator 16.0.3, SVG Export Plug-In . SVG Version: 6.00 Build 0)  -->
<!DOCTYPE svg PUBLIC "-//W3C//DTD SVG 1.1//EN" "http://www.w3.org/Graphics/SVG/1.1/DTD/svg11.dtd">
<svg version="1.1" xmlns="http://www.w3.org/2000/svg" xmlns:xlink="http://www.w3.org/1999/xlink" x="0px" y="0px" width="24px"
	 height="24px" viewBox="0 0 24 24" enable-background="new 0 0 24 24" xml:space="preserve">
<g id="Outline_Icons_1_">
	<g id="Outline_Icons">
	</g>
	<g id="New_icons_1_">
		<g>
			<g>
				<circle fill="none" stroke="#000000" stroke-linejoin="round" stroke-miterlimit="10" cx="17.5" cy="17.5" r="6"/>
				<g>
					<g>
						<g>
							<path d="M17.5,21c-0.277,0-0.5,0.226-0.5,0.502C17,21.777,17.223,22,17.5,22c0.275,0,0.5-0.223,0.5-0.498
								C18,21.226,17.775,21,17.5,21L17.5,21z"/>
						</g>
					</g>
				</g>
				<path fill="none" stroke="#000000" stroke-linecap="round" stroke-linejoin="round" stroke-miterlimit="10" d="M15.75,15.75
					c0-0.967,0.783-1.75,1.75-1.75s1.75,0.783,1.75,1.75s-0.783,1.75-1.75,1.75v2"/>
			</g>
			<g>
				<g>
					<polyline fill="none" stroke="#000000" stroke-linecap="round" stroke-linejoin="round" stroke-miterlimit="10" points="
						14,10.5 0.5,10.5 0.5,5.5 18.5,5.5 18.5,9.5 					"/>
					
						<circle fill="none" stroke="#000000" stroke-linecap="round" stroke-linejoin="round" stroke-miterlimit="10" cx="9.5" cy="8" r="0.5"/>
					
						<circle fill="none" stroke="#000000" stroke-linecap="round" stroke-linejoin="round" stroke-miterlimit="10" cx="12.5" cy="8" r="0.5"/>
					
						<circle fill="none" stroke="#000000" stroke-linecap="round" stroke-linejoin="round" stroke-miterlimit="10" cx="15.5" cy="8" r="0.5"/>
					
						<circle fill="none" stroke="#000000" stroke-linecap="round" stroke-linejoin="round" stroke-miterlimit="10" cx="3.5" cy="8" r="1"/>
					<polyline fill="none" stroke="#000000" stroke-linecap="round" stroke-linejoin="round" stroke-miterlimit="10" points="
						0.5,5.5 0.5,0.5 18.5,0.5 18.5,5.5 					"/>
					
						<circle fill="none" stroke="#000000" stroke-linecap="round" stroke-linejoin="round" stroke-miterlimit="10" cx="9.5" cy="3" r="0.5"/>
					
						<circle fill="none" stroke="#000000" stroke-linecap="round" stroke-linejoin="round" stroke-miterlimit="10" cx="12.5" cy="3" r="0.5"/>
					
						<circle fill="none" stroke="#000000" stroke-linecap="round" stroke-linejoin="round" stroke-miterlimit="10" cx="15.5" cy="3" r="0.5"/>
					
						<circle fill="none" stroke="#000000" stroke-linecap="round" stroke-linejoin="round" stroke-miterlimit="10" cx="3.5" cy="3" r="1"/>
					<polyline fill="none" stroke="#000000" stroke-linecap="round" stroke-linejoin="round" stroke-miterlimit="10" points="
						0.5,10.5 0.5,15.5 10,15.5 					"/>
					
						<circle fill="none" stroke="#000000" stroke-linecap="round" stroke-linejoin="round" stroke-miterlimit="10" cx="9.5" cy="13" r="0.5"/>
					
						<circle fill="none" stroke="#000000" stroke-linecap="round" stroke-linejoin="round" stroke-miterlimit="10" cx="3.5" cy="13" r="1"/>
					
						<line fill="none" stroke="#000000" stroke-linecap="round" stroke-linejoin="round" stroke-miterlimit="10" x1="5.5" y1="19.5" x2="9.5" y2="19.5"/>
					
						<line fill="none" stroke="#000000" stroke-linecap="round" stroke-linejoin="round" stroke-miterlimit="10" x1="9.5" y1="15.5" x2="9.5" y2="19.5"/>
					<g>
						<g>
							<g>
								<path d="M1.5,19C1.224,19,1,19.224,1,19.5S1.224,20,1.5,20S2,19.776,2,19.5S1.776,19,1.5,19L1.5,19z"/>
							</g>
						</g>
					</g>
					<g>
						<g>
							<g>
								<path d="M3.5,19C3.224,19,3,19.224,3,19.5S3.224,20,3.5,20S4,19.776,4,19.5S3.776,19,3.5,19L3.5,19z"/>
							</g>
						</g>
					</g>
				</g>
			</g>
		</g>
	</g>
</g>

</svg>
