<?xml version="1.0" encoding="utf-8"?>
<!-- Generator: Adobe Illustrator 16.0.3, SVG Export Plug-In . SVG Version: 6.00 Build 0)  -->
<!DOCTYPE svg PUBLIC "-//W3C//DTD SVG 1.1//EN" "http://www.w3.org/Graphics/SVG/1.1/DTD/svg11.dtd">
<svg version="1.1" xmlns="http://www.w3.org/2000/svg" xmlns:xlink="http://www.w3.org/1999/xlink" x="0px" y="0px" width="24px"
	 height="24px" viewBox="0 0 24 24" enable-background="new 0 0 24 24" xml:space="preserve">
<g id="Outline_Icons">
	<g>
		
			<circle fill="none" stroke="#000000" stroke-linecap="round" stroke-linejoin="round" stroke-miterlimit="10" cx="12" cy="12" r="11.5"/>
		<path fill="none" stroke="#000000" stroke-linejoin="round" stroke-miterlimit="10" d="M7.468,11.25c0,0,3-2.16,3-3.76
			c0-1.846-2.455-2.43-3-0.184c-0.544-2.246-3-1.662-3,0.184C4.468,9.09,7.468,11.25,7.468,11.25z"/>
		<path fill="none" stroke="#000000" stroke-linejoin="round" stroke-miterlimit="10" d="M16.468,11.25c0,0,3-2.16,3-3.76
			c0-1.846-2.455-2.43-3-0.184c-0.544-2.246-3-1.662-3,0.184C13.468,9.09,16.468,11.25,16.468,11.25z"/>
		<path fill="none" stroke="#000000" stroke-linecap="round" stroke-linejoin="round" stroke-miterlimit="10" d="M18.5,15
			c-1.293,2.301-3.708,3.73-6.471,3.73c-2.807,0-5.252-1.346-6.529-3.715"/>
	</g>
</g>

</svg>
