<?xml version="1.0" encoding="utf-8"?>
<!-- Generator: Adobe Illustrator 16.0.3, SVG Export Plug-In . SVG Version: 6.00 Build 0)  -->
<!DOCTYPE svg PUBLIC "-//W3C//DTD SVG 1.1//EN" "http://www.w3.org/Graphics/SVG/1.1/DTD/svg11.dtd">
<svg version="1.1" xmlns="http://www.w3.org/2000/svg" xmlns:xlink="http://www.w3.org/1999/xlink" x="0px" y="0px" width="24px"
	 height="24px" viewBox="0 0 24 24" enable-background="new 0 0 24 24" xml:space="preserve">
<g id="Outline_Icons">
	<g>
		<rect x="0.5" y="4.503" fill="none" stroke="#000000" stroke-linejoin="round" stroke-miterlimit="10" width="22" height="15"/>
		<rect x="0.5" y="7.503" fill="none" stroke="#000000" stroke-linejoin="round" stroke-miterlimit="10" width="4" height="9"/>
		<rect x="18.5" y="7.503" fill="none" stroke="#000000" stroke-linejoin="round" stroke-miterlimit="10" width="4" height="9"/>
		<line fill="none" stroke="#000000" stroke-linejoin="round" stroke-miterlimit="10" x1="11.5" y1="4.503" x2="11.5" y2="19.503"/>
		<circle fill="none" stroke="#000000" stroke-linejoin="round" stroke-miterlimit="10" cx="11.5" cy="12.003" r="3"/>
	</g>
</g>

</svg>
