<?xml version="1.0" encoding="utf-8"?>
<!-- Generator: Adobe Illustrator 16.0.3, SVG Export Plug-In . SVG Version: 6.00 Build 0)  -->
<!DOCTYPE svg PUBLIC "-//W3C//DTD SVG 1.1//EN" "http://www.w3.org/Graphics/SVG/1.1/DTD/svg11.dtd">
<svg version="1.1" xmlns="http://www.w3.org/2000/svg" xmlns:xlink="http://www.w3.org/1999/xlink" x="0px" y="0px" width="24px"
	 height="24px" viewBox="0 0 24 24" enable-background="new 0 0 24 24" xml:space="preserve">
<g id="Outline_Icons">
	<g>
		<polyline fill="none" stroke="#000000" stroke-linecap="round" stroke-linejoin="round" stroke-miterlimit="10" points="
			11.5,23.5 11.5,19.5 15.5,19.5 15.5,15.5 19.5,15.5 19.5,11.5 23.5,11.5 		"/>
		
			<line fill="none" stroke="#000000" stroke-linecap="round" stroke-linejoin="round" stroke-miterlimit="10" x1="17.5" y1="23.5" x2="23.5" y2="17.5"/>
		<polyline fill="none" stroke="#000000" stroke-linecap="round" stroke-linejoin="round" stroke-miterlimit="10" points="
			20.5,17.5 23.5,17.5 23.5,20.5 		"/>
		<path fill="none" stroke="#000000" stroke-linecap="round" stroke-linejoin="round" stroke-miterlimit="10" d="M11.5,18v-2l-2-3
			v-3l2,2l2.642-1.51c0.222-0.126,0.382-0.34,0.44-0.589s0.012-0.511-0.13-0.724c-0.258-0.387-0.764-0.521-1.18-0.313L12,9.5
			l-1.406-2.109C10.223,6.834,9.599,6.5,8.93,6.5H4.329c-0.53,0-1.039,0.211-1.414,0.586L0.5,9.5v3c0,0.553,0.448,1,1,1s1-0.447,1-1
			v-1.917L4.5,9v3.8L3,21.5h2l2-7L8.5,17v1.5"/>
		<circle fill="none" stroke="#000000" stroke-linejoin="round" stroke-miterlimit="10" cx="7" cy="2.5" r="2"/>
	</g>
</g>

</svg>
