<?xml version="1.0" encoding="utf-8"?>
<!-- Generator: Adobe Illustrator 16.0.3, SVG Export Plug-In . SVG Version: 6.00 Build 0)  -->
<!DOCTYPE svg PUBLIC "-//W3C//DTD SVG 1.1//EN" "http://www.w3.org/Graphics/SVG/1.1/DTD/svg11.dtd">
<svg version="1.1" xmlns="http://www.w3.org/2000/svg" xmlns:xlink="http://www.w3.org/1999/xlink" x="0px" y="0px" width="24px"
	 height="24px" viewBox="0 0 24 24" enable-background="new 0 0 24 24" xml:space="preserve">
<g id="Outline_Icons_1_">
	<g id="Outline_Icons">
		<g>
			<path fill="none" stroke="#000000" stroke-linejoin="round" stroke-miterlimit="10" d="M17.965,8.82
				C18.936,10.31,19.5,12.09,19.5,14c0,5.247-4.253,9.5-9.5,9.5S0.5,19.247,0.5,14c0-5.247,4.253-9.5,9.5-9.5
				c1.85,0,3.576,0.528,5.035,1.443"/>
			<path fill="none" stroke="#000000" stroke-linejoin="round" stroke-miterlimit="10" d="M10.524,8.023C10.352,8.008,10.177,8,10,8
				c-3.313,0-6,2.687-6,6c0,3.314,2.687,6,6,6s6-2.686,6-6v-0.5"/>
			<path fill="none" stroke="#000000" stroke-linejoin="round" stroke-miterlimit="10" d="M12.5,13.5V14c0,1.381-1.119,2.5-2.5,2.5
				S7.5,15.381,7.5,14c0-1.381,1.119-2.5,2.5-2.5c0.136,0,0.269,0.011,0.398,0.032l0.102,0.004"/>
			<polygon fill="none" stroke="#000000" stroke-linejoin="round" stroke-miterlimit="10" points="12.881,8.134 20.32,0.648 
				23.125,3.478 15.628,10.993 18.091,13.5 10.5,13.5 10.5,5.66 			"/>
		</g>
	</g>
	<g id="New_icons_1_">
	</g>
</g>

</svg>
