<?xml version="1.0" encoding="utf-8"?>
<!-- Generator: Adobe Illustrator 16.0.3, SVG Export Plug-In . SVG Version: 6.00 Build 0)  -->
<!DOCTYPE svg PUBLIC "-//W3C//DTD SVG 1.1//EN" "http://www.w3.org/Graphics/SVG/1.1/DTD/svg11.dtd">
<svg version="1.1" xmlns="http://www.w3.org/2000/svg" xmlns:xlink="http://www.w3.org/1999/xlink" x="0px" y="0px" width="24px"
	 height="24px" viewBox="0 0 24 24" enable-background="new 0 0 24 24" xml:space="preserve">
<g id="Outline_Icons">
	<g>
		<path fill="none" stroke="#000000" stroke-linejoin="round" stroke-miterlimit="10" d="M6.998,13C6.678,12.23,6.5,11.386,6.5,10.5
			C6.5,6.91,9.41,4,13,4s6.5,2.91,6.5,6.5c0,0.886-0.177,1.73-0.498,2.5"/>
		<line fill="none" stroke="#000000" stroke-linejoin="round" stroke-miterlimit="10" x1="7.5" y1="12.5" x2="18.5" y2="12.5"/>
		<circle fill="none" stroke="#000000" stroke-linejoin="round" stroke-miterlimit="10" cx="13" cy="9" r="1"/>
		<path fill="none" stroke="#000000" stroke-linejoin="round" stroke-miterlimit="10" d="M13,10.5c-3.371,0-6.275,1.968-7.649,4.812
			L3.5,13.5h-2l3,6v2c0,1.104,0.896,2,2,2h13c1.104,0,2-0.896,2-2V19C21.5,14.306,17.694,10.5,13,10.5z"/>
	</g>
</g>

</svg>
