<?xml version="1.0" encoding="utf-8"?>
<!-- Generator: Adobe Illustrator 16.0.3, SVG Export Plug-In . SVG Version: 6.00 Build 0)  -->
<!DOCTYPE svg PUBLIC "-//W3C//DTD SVG 1.1//EN" "http://www.w3.org/Graphics/SVG/1.1/DTD/svg11.dtd">
<svg version="1.1" xmlns="http://www.w3.org/2000/svg" xmlns:xlink="http://www.w3.org/1999/xlink" x="0px" y="0px" width="24px"
	 height="24px" viewBox="0 0 24 24" enable-background="new 0 0 24 24" xml:space="preserve">
<g id="Outline_Icons">
	<g>
		<g>
			<path fill="none" stroke="#000000" stroke-linecap="round" stroke-linejoin="round" stroke-miterlimit="10" d="M0.518,4.53
				c1.366-0.599,2.867-1,4.441-1c6.352,0,11.5,6.5,11.5,6.5s-5.148,6.5-11.5,6.5c-1.581,0-3.088-0.401-4.459-1.007"/>
			
				<circle fill="none" stroke="#000000" stroke-linecap="round" stroke-linejoin="round" stroke-miterlimit="10" cx="4.959" cy="10.03" r="4"/>
			<path fill="none" stroke="#000000" stroke-linecap="round" stroke-linejoin="round" stroke-miterlimit="10" d="M4.959,8.03
				c1.104,0,2,0.897,2,2c0,1.106-0.896,2-2,2s-2-0.894-2-2"/>
		</g>
		<path fill="none" stroke="#000000" stroke-linecap="round" stroke-linejoin="round" stroke-miterlimit="10" d="M19.812,20.646
			c0,1.577-1.277,2.854-2.854,2.854s-2.854-1.277-2.854-2.854c0-1.575,2.854-6.115,2.854-6.115S19.812,19.07,19.812,20.646z"/>
	</g>
</g>

</svg>
