<?xml version="1.0" encoding="utf-8"?>
<!-- Generator: Adobe Illustrator 16.0.3, SVG Export Plug-In . SVG Version: 6.00 Build 0)  -->
<!DOCTYPE svg PUBLIC "-//W3C//DTD SVG 1.1//EN" "http://www.w3.org/Graphics/SVG/1.1/DTD/svg11.dtd">
<svg version="1.1" xmlns="http://www.w3.org/2000/svg" xmlns:xlink="http://www.w3.org/1999/xlink" x="0px" y="0px" width="24px"
	 height="24px" viewBox="0 0 24 24" enable-background="new 0 0 24 24" xml:space="preserve">
<g id="Outline_Icons">
	<g>
		<path fill="none" stroke="#000000" stroke-linecap="round" stroke-linejoin="round" stroke-miterlimit="10" d="M12,19
			c5.566,0,5.054-9.114,1.5-11.5h-3C6.946,9.886,6.434,19,12,19"/>
		<path fill="none" stroke="#000000" stroke-linecap="round" stroke-linejoin="round" stroke-miterlimit="10" d="M10.5,7.5
			C11.071,5.788,11.047,5,12,5s0.929,0.788,1.5,2.5"/>
		<path fill="none" stroke="#000000" stroke-linecap="round" stroke-linejoin="round" stroke-miterlimit="10" d="M14.954,9.085
			l0.965-1.423C16.863,5.773,16.493,3.493,15,2"/>
		<path fill="none" stroke="#000000" stroke-linecap="round" stroke-linejoin="round" stroke-miterlimit="10" d="M15.762,10.922
			C18.431,9.921,19.395,9.763,20.5,7"/>
		<path fill="none" stroke="#000000" stroke-linecap="round" stroke-linejoin="round" stroke-miterlimit="10" d="M16.103,12.518
			c2,0.333,3.325,1.479,3.975,2.995L20.5,16.5"/>
		<path fill="none" stroke="#000000" stroke-linecap="round" stroke-linejoin="round" stroke-miterlimit="10" d="M16.123,14.722
			l1.381,2.41c0.328,0.573,0.538,1.205,0.62,1.86L18.5,22"/>
		<path fill="none" stroke="#000000" stroke-linecap="round" stroke-linejoin="round" stroke-miterlimit="10" d="M9.046,9.085
			L8.081,7.662C7.137,5.773,7.507,3.493,9,2"/>
		<path fill="none" stroke="#000000" stroke-linecap="round" stroke-linejoin="round" stroke-miterlimit="10" d="M8.238,10.922
			C5.569,9.921,4.605,9.763,3.5,7"/>
		<path fill="none" stroke="#000000" stroke-linecap="round" stroke-linejoin="round" stroke-miterlimit="10" d="M7.897,12.518
			c-2,0.333-3.325,1.479-3.975,2.995L3.5,16.5"/>
		<path fill="none" stroke="#000000" stroke-linecap="round" stroke-linejoin="round" stroke-miterlimit="10" d="M7.877,14.722
			l-1.381,2.41c-0.328,0.573-0.538,1.205-0.62,1.86L5.5,22"/>
	</g>
</g>

</svg>
