<?xml version="1.0" encoding="utf-8"?>
<!-- Generator: Adobe Illustrator 16.0.3, SVG Export Plug-In . SVG Version: 6.00 Build 0)  -->
<!DOCTYPE svg PUBLIC "-//W3C//DTD SVG 1.1//EN" "http://www.w3.org/Graphics/SVG/1.1/DTD/svg11.dtd">
<svg version="1.1" xmlns="http://www.w3.org/2000/svg" xmlns:xlink="http://www.w3.org/1999/xlink" x="0px" y="0px" width="24px"
	 height="24px" viewBox="0 0 24 24" enable-background="new 0 0 24 24" xml:space="preserve">
<g id="Outline_Icons">
	<g>
		<g>
			<path fill="none" stroke="#000000" stroke-linejoin="round" stroke-miterlimit="10" d="M20.5,18.548V5.497c0-6.611-17-6.611-17,0
				v13.051"/>
			<path fill="none" stroke="#000000" stroke-linejoin="round" stroke-miterlimit="10" d="M19.456,18.561
				c-0.25-1.986-2.144-3.456-4.253-2.964c-0.54-1.234-1.77-2.099-3.203-2.099s-2.664,0.865-3.205,2.099
				c-2.105-0.49-4.002,0.979-4.252,2.964C2.949,18.207,1.5,19.426,1.5,20.997c0,2.707,3,2.5,3,2.5h15c0,0,3,0.224,3-2.5
				C22.5,19.426,21.049,18.207,19.456,18.561z"/>
		</g>
		<g>
			
				<line fill="none" stroke="#000000" stroke-linecap="round" stroke-linejoin="round" stroke-miterlimit="10" x1="11.5" y1="10.511" x2="11.5" y2="6.511"/>
			<path fill="none" stroke="#000000" stroke-linecap="round" stroke-linejoin="round" stroke-miterlimit="10" d="M14.5,10.511v-4
				h0.977c0.812,0,1.023,0.448,1.023,1c0,0.552-0.211,1-1.023,1H14.52"/>
			<g>
				<path fill="none" stroke="#000000" stroke-linecap="round" stroke-linejoin="round" stroke-miterlimit="10" d="M7.5,10.511v-4
					h1.025c0.813,0,0.955,0.448,0.955,1c0,0.552-0.142,1-0.955,1H7.568"/>
				
					<line fill="none" stroke="#000000" stroke-linecap="round" stroke-linejoin="round" stroke-miterlimit="10" x1="8.525" y1="8.511" x2="9.48" y2="10.511"/>
			</g>
		</g>
	</g>
</g>

</svg>
