<?xml version="1.0" encoding="utf-8"?>
<!-- Generator: Adobe Illustrator 16.0.3, SVG Export Plug-In . SVG Version: 6.00 Build 0)  -->
<!DOCTYPE svg PUBLIC "-//W3C//DTD SVG 1.1//EN" "http://www.w3.org/Graphics/SVG/1.1/DTD/svg11.dtd">
<svg version="1.1" xmlns="http://www.w3.org/2000/svg" xmlns:xlink="http://www.w3.org/1999/xlink" x="0px" y="0px" width="24px"
	 height="24px" viewBox="0 0 24 24" enable-background="new 0 0 24 24" xml:space="preserve">
<g id="Outline_Icons_1_">
	<g id="Outline_Icons">
		<g>
			<polygon fill="none" stroke="#000000" stroke-linejoin="round" stroke-miterlimit="10" points="11.972,3.5 12.972,5.5 
				14.972,5.5 13.354,6.735 13.972,9 11.972,7.5 9.972,9 10.767,6.735 8.972,5.5 10.972,5.5 			"/>
			<path fill="none" stroke="#000000" stroke-linecap="round" stroke-linejoin="round" stroke-miterlimit="10" d="M5.129,10.5
				c-5,0-4.622-6.619-4.622-8h2.535"/>
			<path fill="none" stroke="#000000" stroke-linecap="round" stroke-linejoin="round" stroke-miterlimit="10" d="M18.851,10.5
				c5,0,4.651-6.619,4.651-8h-2.563"/>
			<path fill="none" stroke="#000000" stroke-linecap="round" stroke-linejoin="round" stroke-miterlimit="10" d="M21.007,0.5h-18
				c0,15.434,7.965,11.054,7.965,16.5c-0.062,3.5-1.703,4.5-4.465,4.5v2h11v-2c-2.762,0-4.535-1-4.535-4.5
				C12.972,11.547,21.007,15.87,21.007,0.5z"/>
		</g>
	</g>
	<g id="New_icons_1_">
	</g>
</g>

</svg>
