<?xml version="1.0" encoding="utf-8"?>
<!-- Generator: Adobe Illustrator 16.0.3, SVG Export Plug-In . SVG Version: 6.00 Build 0)  -->
<!DOCTYPE svg PUBLIC "-//W3C//DTD SVG 1.1//EN" "http://www.w3.org/Graphics/SVG/1.1/DTD/svg11.dtd">
<svg version="1.1" xmlns="http://www.w3.org/2000/svg" xmlns:xlink="http://www.w3.org/1999/xlink" x="0px" y="0px" width="24px"
	 height="24px" viewBox="0 0 24 24" enable-background="new 0 0 24 24" xml:space="preserve">
<g id="Outline_Icons">
	<g>
		<path fill="none" stroke="#000000" stroke-linejoin="round" stroke-miterlimit="10" d="M3.5,8.5v15h6V9
			c0-0.966-0.392-1.841-1.024-2.474"/>
		<path fill="none" stroke="#000000" stroke-linejoin="round" stroke-miterlimit="10" d="M22.5,11.5h-0.154
			c-5.639,0-9.021,0.856-12.846,5v-7h13V11.5z"/>
		<polyline fill="none" stroke="#000000" stroke-linejoin="round" stroke-miterlimit="10" points="17,12 17,13.5 21.5,13.5 
			21.5,11.5 		"/>
		<path fill="none" stroke="#000000" stroke-linejoin="round" stroke-miterlimit="10" d="M21.5,20.5c0,1.105-0.896,2-2,2
			s-2-0.895-2-2c0-1.104,2-4,2-4S21.5,19.396,21.5,20.5z"/>
		<path fill="none" stroke="#000000" stroke-linejoin="round" stroke-miterlimit="10" d="M3.51,8.5L2.5,6.214l12.035-5.209
			c0.632-0.279,1.37,0.007,1.648,0.639c0.279,0.631-0.007,1.369-0.639,1.648L3.51,8.5z"/>
	</g>
</g>

</svg>
