<?xml version="1.0" encoding="utf-8"?>
<!-- Generator: Adobe Illustrator 16.0.3, SVG Export Plug-In . SVG Version: 6.00 Build 0)  -->
<!DOCTYPE svg PUBLIC "-//W3C//DTD SVG 1.1//EN" "http://www.w3.org/Graphics/SVG/1.1/DTD/svg11.dtd">
<svg version="1.1" xmlns="http://www.w3.org/2000/svg" xmlns:xlink="http://www.w3.org/1999/xlink" x="0px" y="0px" width="24px"
	 height="24px" viewBox="0 0 24 24" enable-background="new 0 0 24 24" xml:space="preserve">
<g id="Outline_Icons">
	<g>
		<path fill="none" stroke="#000000" stroke-linecap="round" stroke-linejoin="round" stroke-miterlimit="10" d="M12.508,20.578
			c-0.145,1.152-0.266,1.952-0.266,1.952C12.109,23.063,11.55,23.5,11,23.5H3c-0.55,0-1.109-0.437-1.242-0.97
			c0,0-0.758-5.03-0.758-8.03S5.5,11,5.5,9s0-6.5,0-6.5"/>
		<path fill="none" stroke="#000000" stroke-linecap="round" stroke-linejoin="round" stroke-miterlimit="10" d="M8.5,2.5
			c0,0,0,4.5,0,6.5c0,1.539,2.665,2.19,3.894,3.775l0.114,0.128"/>
		
			<rect x="5.5" y="2.5" fill="none" stroke="#000000" stroke-linecap="round" stroke-linejoin="round" stroke-miterlimit="10" width="3" height="3"/>
		<polygon fill="none" stroke="#000000" stroke-linecap="round" stroke-linejoin="round" stroke-miterlimit="10" points="10.5,14.5 
			3.5,14.5 4.5,21.5 9.5,21.5 		"/>
		<path fill="none" stroke="#000000" stroke-linecap="round" stroke-linejoin="round" stroke-miterlimit="10" d="M23.5,12.5v9.347
			c0,0.909-1.209,1.653-2.129,1.653H14.68c-0.921,0-2.18-0.744-2.18-1.653V12.5H23.5z"/>
		
			<line fill="none" stroke="#000000" stroke-linecap="round" stroke-linejoin="round" stroke-miterlimit="10" x1="12.508" y1="16.5" x2="23.5" y2="16.5"/>
		<g>
			<g>
				<path d="M17.5,21c-0.276,0-0.5,0.224-0.5,0.5s0.224,0.5,0.5,0.5s0.5-0.224,0.5-0.5S17.776,21,17.5,21L17.5,21z"/>
			</g>
		</g>
		<g>
			<g>
				<path d="M15.5,20c-0.276,0-0.5,0.224-0.5,0.5s0.224,0.5,0.5,0.5s0.5-0.224,0.5-0.5S15.776,20,15.5,20L15.5,20z"/>
			</g>
		</g>
		<g>
			<g>
				<path d="M14.5,18c-0.276,0-0.5,0.224-0.5,0.5s0.224,0.5,0.5,0.5s0.5-0.224,0.5-0.5S14.776,18,14.5,18L14.5,18z"/>
			</g>
		</g>
		<g>
			<g>
				<path d="M17.5,19c-0.276,0-0.5,0.224-0.5,0.5s0.224,0.5,0.5,0.5s0.5-0.224,0.5-0.5S17.776,19,17.5,19L17.5,19z"/>
			</g>
		</g>
		<g>
			<g>
				<path d="M19.5,19c-0.276,0-0.5,0.224-0.5,0.5s0.224,0.5,0.5,0.5s0.5-0.224,0.5-0.5S19.776,19,19.5,19L19.5,19z"/>
			</g>
		</g>
		<g>
			<g>
				<path d="M21.5,18c-0.276,0-0.5,0.224-0.5,0.5s0.224,0.5,0.5,0.5s0.5-0.224,0.5-0.5S21.776,18,21.5,18L21.5,18z"/>
			</g>
		</g>
		<g>
			<g>
				<path d="M20.5,21c-0.276,0-0.5,0.224-0.5,0.5s0.224,0.5,0.5,0.5s0.5-0.224,0.5-0.5S20.776,21,20.5,21L20.5,21z"/>
			</g>
		</g>
	</g>
</g>

</svg>
