<?xml version="1.0" encoding="utf-8"?>
<!-- Generator: Adobe Illustrator 16.0.3, SVG Export Plug-In . SVG Version: 6.00 Build 0)  -->
<!DOCTYPE svg PUBLIC "-//W3C//DTD SVG 1.1//EN" "http://www.w3.org/Graphics/SVG/1.1/DTD/svg11.dtd">
<svg version="1.1" xmlns="http://www.w3.org/2000/svg" xmlns:xlink="http://www.w3.org/1999/xlink" x="0px" y="0px" width="24px"
	 height="24px" viewBox="0 0 24 24" enable-background="new 0 0 24 24" xml:space="preserve">
<g id="Outline_Icons">
	<g>
		<path fill="none" stroke="#000000" stroke-linecap="round" stroke-linejoin="round" stroke-miterlimit="10" d="M6.5,9.5L4,11
			c0,0-1-0.5-0.5-1.5s1-2,1-2l-2,1c0,0-1-0.5,0-2s1.5-2,1.5-2L1,5c0,0,0-2,2.5-3s3.629-1.302,3.629-1.302
			C7.479,0.57,7.855,0.5,8.25,0.5c1.795,0,3.25,1.455,3.25,3.25L10.5,4l1,1l-0.999,0.749C10.197,5.978,10,6.341,10,6.75
			C10,7.44,10.56,8,11.25,8c0.281,0,0.541-0.093,0.751-0.251C12.001,7.749,17,5,18.5,4s3-1,4,0S23,6,23,6l-2.5,0.5l-1,2c0,0-1-2-3-1
			s-4.5,3-4.5,3s0,0.5,0.5,2s1.5,1,3,0.5s3.5-1,4.5-1.5s2.5-2,2.5-2v4c0,0-7.5,2.5-9,3s-3,2-3,2l-3,3l1.5,2c0,0-1.5,0-2.5,0
			s-2.5-2-2.5-2s4-4.5,4.5-5s0-2,0-2L6.5,9.5z"/>
		
			<line fill="none" stroke="#000000" stroke-linecap="round" stroke-linejoin="round" stroke-miterlimit="10" x1="6.5" y1="3" x2="8" y2="4.5"/>
		
			<line fill="none" stroke="#000000" stroke-linecap="round" stroke-linejoin="round" stroke-miterlimit="10" x1="6.5" y1="4.5" x2="8" y2="3"/>
		
			<line fill="none" stroke="#000000" stroke-linecap="round" stroke-linejoin="round" stroke-miterlimit="10" x1="15.5" y1="18" x2="15.5" y2="19"/>
		
			<line fill="none" stroke="#000000" stroke-linecap="round" stroke-linejoin="round" stroke-miterlimit="10" x1="21" y1="16.5" x2="21" y2="17.5"/>
		<path fill="none" stroke="#000000" stroke-linecap="round" stroke-linejoin="round" stroke-miterlimit="10" d="M3.5,12
			c0,0-1,1.5-1,2s1,1.5,1,1.5s1-1,1-1.5S3.5,12,3.5,12z"/>
		<path fill="none" stroke="#000000" stroke-linecap="round" stroke-linejoin="round" stroke-miterlimit="10" d="M19,19
			c0,0-1,1.5-1,2s1,1.5,1,1.5s1-1,1-1.5S19,19,19,19z"/>
	</g>
</g>

</svg>
